^C:\USERS\PIMWU\SOURCE\REPOS\GMM_IMG\GMM_IMG\STDAFX.CPP
C:\WINDOWS\GLOBALIZATION\SORTING\SORTDEFAULT.NLS
C:\PROGRAM FILES (X86)\MICROSOFT VISUAL STUDIO\2017\COMMUNITY\VC\TOOLS\MSVC\14.11.25503\BIN\HOSTX86\X64\1033\CLUI.DLL
C:\PROGRAM FILES (X86)\MICROSOFT VISUAL STUDIO\2017\COMMUNITY\VC\TOOLS\MSVC\14.11.25503\BIN\HOSTX86\X86\MSPDBSRV.EXE
C:\WINDOWS\SYSTEM32\TZRES.DLL
C:\USERS\PIMWU\SOURCE\REPOS\GMM_IMG\GMM_IMG\STDAFX.H
C:\USERS\PIMWU\SOURCE\REPOS\GMM_IMG\GMM_IMG\TARGETVER.H
C:\PROGRAM FILES (X86)\WINDOWS KITS\10\INCLUDE\10.0.17134.0\SHARED\SDKDDKVER.H
C:\PROGRAM FILES (X86)\WINDOWS KITS\10\INCLUDE\10.0.17134.0\UCRT\STDIO.H
C:\PROGRAM FILES (X86)\WINDOWS KITS\10\INCLUDE\10.0.17134.0\UCRT\CORECRT.H
C:\PROGRAM FILES (X86)\MICROSOFT VISUAL STUDIO\2017\COMMUNITY\VC\TOOLS\MSVC\14.11.25503\INCLUDE\VCRUNTIME.H
C:\PROGRAM FILES (X86)\MICROSOFT VISUAL STUDIO\2017\COMMUNITY\VC\TOOLS\MSVC\14.11.25503\INCLUDE\SAL.H
C:\PROGRAM FILES (X86)\MICROSOFT VISUAL STUDIO\2017\COMMUNITY\VC\TOOLS\MSVC\14.11.25503\INCLUDE\CONCURRENCYSAL.H
C:\PROGRAM FILES (X86)\MICROSOFT VISUAL STUDIO\2017\COMMUNITY\VC\TOOLS\MSVC\14.11.25503\INCLUDE\VADEFS.H
C:\PROGRAM FILES (X86)\WINDOWS KITS\10\INCLUDE\10.0.17134.0\UCRT\CORECRT_WSTDIO.H
C:\PROGRAM FILES (X86)\WINDOWS KITS\10\INCLUDE\10.0.17134.0\UCRT\CORECRT_STDIO_CONFIG.H
C:\PROGRAM FILES (X86)\WINDOWS KITS\10\INCLUDE\10.0.17134.0\UCRT\TCHAR.H
C:\PROGRAM FILES (X86)\WINDOWS KITS\10\INCLUDE\10.0.17134.0\UCRT\WCHAR.H
C:\PROGRAM FILES (X86)\WINDOWS KITS\10\INCLUDE\10.0.17134.0\UCRT\CORECRT_MEMCPY_S.H
C:\PROGRAM FILES (X86)\WINDOWS KITS\10\INCLUDE\10.0.17134.0\UCRT\ERRNO.H
C:\PROGRAM FILES (X86)\MICROSOFT VISUAL STUDIO\2017\COMMUNITY\VC\TOOLS\MSVC\14.11.25503\INCLUDE\VCRUNTIME_STRING.H
C:\PROGRAM FILES (X86)\WINDOWS KITS\10\INCLUDE\10.0.17134.0\UCRT\CORECRT_WCONIO.H
C:\PROGRAM FILES (X86)\WINDOWS KITS\10\INCLUDE\10.0.17134.0\UCRT\CORECRT_WCTYPE.H
C:\PROGRAM FILES (X86)\WINDOWS KITS\10\INCLUDE\10.0.17134.0\UCRT\CORECRT_WDIRECT.H
C:\PROGRAM FILES (X86)\WINDOWS KITS\10\INCLUDE\10.0.17134.0\UCRT\CORECRT_WIO.H
C:\PROGRAM FILES (X86)\WINDOWS KITS\10\INCLUDE\10.0.17134.0\UCRT\CORECRT_SHARE.H
C:\PROGRAM FILES (X86)\WINDOWS KITS\10\INCLUDE\10.0.17134.0\UCRT\CORECRT_WPROCESS.H
C:\PROGRAM FILES (X86)\WINDOWS KITS\10\INCLUDE\10.0.17134.0\UCRT\CORECRT_WSTDLIB.H
C:\PROGRAM FILES (X86)\WINDOWS KITS\10\INCLUDE\10.0.17134.0\UCRT\CORECRT_WSTRING.H
C:\PROGRAM FILES (X86)\WINDOWS KITS\10\INCLUDE\10.0.17134.0\UCRT\CORECRT_WTIME.H
C:\PROGRAM FILES (X86)\WINDOWS KITS\10\INCLUDE\10.0.17134.0\UCRT\SYS\STAT.H
C:\PROGRAM FILES (X86)\WINDOWS KITS\10\INCLUDE\10.0.17134.0\UCRT\SYS\TYPES.H
^C:\USERS\PIMWU\SOURCE\REPOS\GMM_IMG\GMM_IMG\GMM_IMG.CPP
C:\WINDOWS\GLOBALIZATION\SORTING\SORTDEFAULT.NLS
C:\PROGRAM FILES (X86)\MICROSOFT VISUAL STUDIO\2017\COMMUNITY\VC\TOOLS\MSVC\14.11.25503\BIN\HOSTX86\X64\1033\CLUI.DLL
C:\USERS\PIMWU\SOURCE\REPOS\GMM_IMG\GMM_IMG\X64\DEBUG\GMM_IMG.PCH
C:\WINDOWS\SYSTEM32\TZRES.DLL
C:\PROGRAM FILES (X86)\MICROSOFT VISUAL STUDIO\2017\COMMUNITY\VC\TOOLS\MSVC\14.11.25503\INCLUDE\IOSTREAM
C:\PROGRAM FILES (X86)\MICROSOFT VISUAL STUDIO\2017\COMMUNITY\VC\TOOLS\MSVC\14.11.25503\INCLUDE\ISTREAM
C:\PROGRAM FILES (X86)\MICROSOFT VISUAL STUDIO\2017\COMMUNITY\VC\TOOLS\MSVC\14.11.25503\INCLUDE\OSTREAM
C:\PROGRAM FILES (X86)\MICROSOFT VISUAL STUDIO\2017\COMMUNITY\VC\TOOLS\MSVC\14.11.25503\INCLUDE\IOS
C:\PROGRAM FILES (X86)\MICROSOFT VISUAL STUDIO\2017\COMMUNITY\VC\TOOLS\MSVC\14.11.25503\INCLUDE\XLOCNUM
C:\PROGRAM FILES (X86)\MICROSOFT VISUAL STUDIO\2017\COMMUNITY\VC\TOOLS\MSVC\14.11.25503\INCLUDE\CLIMITS
C:\PROGRAM FILES (X86)\MICROSOFT VISUAL STUDIO\2017\COMMUNITY\VC\TOOLS\MSVC\14.11.25503\INCLUDE\YVALS.H
C:\PROGRAM FILES (X86)\MICROSOFT VISUAL STUDIO\2017\COMMUNITY\VC\TOOLS\MSVC\14.11.25503\INCLUDE\XKEYCHECK.H
C:\PROGRAM FILES (X86)\MICROSOFT VISUAL STUDIO\2017\COMMUNITY\VC\TOOLS\MSVC\14.11.25503\INCLUDE\CRTDEFS.H
C:\PROGRAM FILES (X86)\MICROSOFT VISUAL STUDIO\2017\COMMUNITY\VC\TOOLS\MSVC\14.11.25503\INCLUDE\VCRUNTIME.H
C:\PROGRAM FILES (X86)\MICROSOFT VISUAL STUDIO\2017\COMMUNITY\VC\TOOLS\MSVC\14.11.25503\INCLUDE\USE_ANSI.H
C:\PROGRAM FILES (X86)\MICROSOFT VISUAL STUDIO\2017\COMMUNITY\VC\TOOLS\MSVC\14.11.25503\INCLUDE\LIMITS.H
C:\PROGRAM FILES (X86)\MICROSOFT VISUAL STUDIO\2017\COMMUNITY\VC\TOOLS\MSVC\14.11.25503\INCLUDE\CMATH
C:\PROGRAM FILES (X86)\MICROSOFT VISUAL STUDIO\2017\COMMUNITY\VC\TOOLS\MSVC\14.11.25503\INCLUDE\CSTDLIB
C:\PROGRAM FILES (X86)\WINDOWS KITS\10\INCLUDE\10.0.17134.0\UCRT\STDLIB.H
C:\PROGRAM FILES (X86)\WINDOWS KITS\10\INCLUDE\10.0.17134.0\UCRT\CORECRT_MALLOC.H
C:\PROGRAM FILES (X86)\WINDOWS KITS\10\INCLUDE\10.0.17134.0\UCRT\CORECRT_SEARCH.H
C:\PROGRAM FILES (X86)\WINDOWS KITS\10\INCLUDE\10.0.17134.0\UCRT\STDDEF.H
C:\PROGRAM FILES (X86)\WINDOWS KITS\10\INCLUDE\10.0.17134.0\UCRT\MATH.H
C:\PROGRAM FILES (X86)\WINDOWS KITS\10\INCLUDE\10.0.17134.0\UCRT\CORECRT_MATH.H
C:\PROGRAM FILES (X86)\MICROSOFT VISUAL STUDIO\2017\COMMUNITY\VC\TOOLS\MSVC\14.11.25503\INCLUDE\XTGMATH.H
C:\PROGRAM FILES (X86)\MICROSOFT VISUAL STUDIO\2017\COMMUNITY\VC\TOOLS\MSVC\14.11.25503\INCLUDE\XTR1COMMON
C:\PROGRAM FILES (X86)\MICROSOFT VISUAL STUDIO\2017\COMMUNITY\VC\TOOLS\MSVC\14.11.25503\INCLUDE\CSTDIO
C:\PROGRAM FILES (X86)\MICROSOFT VISUAL STUDIO\2017\COMMUNITY\VC\TOOLS\MSVC\14.11.25503\INCLUDE\STREAMBUF
C:\PROGRAM FILES (X86)\MICROSOFT VISUAL STUDIO\2017\COMMUNITY\VC\TOOLS\MSVC\14.11.25503\INCLUDE\XIOSBASE
C:\PROGRAM FILES (X86)\MICROSOFT VISUAL STUDIO\2017\COMMUNITY\VC\TOOLS\MSVC\14.11.25503\INCLUDE\XLOCALE
C:\PROGRAM FILES (X86)\MICROSOFT VISUAL STUDIO\2017\COMMUNITY\VC\TOOLS\MSVC\14.11.25503\INCLUDE\CSTRING
C:\PROGRAM FILES (X86)\WINDOWS KITS\10\INCLUDE\10.0.17134.0\UCRT\STRING.H
C:\PROGRAM FILES (X86)\WINDOWS KITS\10\INCLUDE\10.0.17134.0\UCRT\CORECRT_MEMORY.H
C:\PROGRAM FILES (X86)\MICROSOFT VISUAL STUDIO\2017\COMMUNITY\VC\TOOLS\MSVC\14.11.25503\INCLUDE\STDEXCEPT
C:\PROGRAM FILES (X86)\MICROSOFT VISUAL STUDIO\2017\COMMUNITY\VC\TOOLS\MSVC\14.11.25503\INCLUDE\EXCEPTION
C:\PROGRAM FILES (X86)\MICROSOFT VISUAL STUDIO\2017\COMMUNITY\VC\TOOLS\MSVC\14.11.25503\INCLUDE\TYPE_TRAITS
C:\PROGRAM FILES (X86)\MICROSOFT VISUAL STUDIO\2017\COMMUNITY\VC\TOOLS\MSVC\14.11.25503\INCLUDE\XSTDDEF
C:\PROGRAM FILES (X86)\MICROSOFT VISUAL STUDIO\2017\COMMUNITY\VC\TOOLS\MSVC\14.11.25503\INCLUDE\CSTDDEF
C:\PROGRAM FILES (X86)\MICROSOFT VISUAL STUDIO\2017\COMMUNITY\VC\TOOLS\MSVC\14.11.25503\INCLUDE\INITIALIZER_LIST
C:\PROGRAM FILES (X86)\WINDOWS KITS\10\INCLUDE\10.0.17134.0\UCRT\MALLOC.H
C:\PROGRAM FILES (X86)\MICROSOFT VISUAL STUDIO\2017\COMMUNITY\VC\TOOLS\MSVC\14.11.25503\INCLUDE\VCRUNTIME_EXCEPTION.H
C:\PROGRAM FILES (X86)\MICROSOFT VISUAL STUDIO\2017\COMMUNITY\VC\TOOLS\MSVC\14.11.25503\INCLUDE\EH.H
C:\PROGRAM FILES (X86)\WINDOWS KITS\10\INCLUDE\10.0.17134.0\UCRT\CORECRT_TERMINATE.H
C:\PROGRAM FILES (X86)\MICROSOFT VISUAL STUDIO\2017\COMMUNITY\VC\TOOLS\MSVC\14.11.25503\INCLUDE\XSTRING
C:\PROGRAM FILES (X86)\MICROSOFT VISUAL STUDIO\2017\COMMUNITY\VC\TOOLS\MSVC\14.11.25503\INCLUDE\XMEMORY0
C:\PROGRAM FILES (X86)\MICROSOFT VISUAL STUDIO\2017\COMMUNITY\VC\TOOLS\MSVC\14.11.25503\INCLUDE\CSTDINT
C:\PROGRAM FILES (X86)\MICROSOFT VISUAL STUDIO\2017\COMMUNITY\VC\TOOLS\MSVC\14.11.25503\INCLUDE\STDINT.H
C:\PROGRAM FILES (X86)\MICROSOFT VISUAL STUDIO\2017\COMMUNITY\VC\TOOLS\MSVC\14.11.25503\INCLUDE\LIMITS
C:\PROGRAM FILES (X86)\MICROSOFT VISUAL STUDIO\2017\COMMUNITY\VC\TOOLS\MSVC\14.11.25503\INCLUDE\YMATH.H
C:\PROGRAM FILES (X86)\MICROSOFT VISUAL STUDIO\2017\COMMUNITY\VC\TOOLS\MSVC\14.11.25503\INCLUDE\CFLOAT
C:\PROGRAM FILES (X86)\WINDOWS KITS\10\INCLUDE\10.0.17134.0\UCRT\FLOAT.H
C:\PROGRAM FILES (X86)\MICROSOFT VISUAL STUDIO\2017\COMMUNITY\VC\TOOLS\MSVC\14.11.25503\INCLUDE\CWCHAR
C:\PROGRAM FILES (X86)\MICROSOFT VISUAL STUDIO\2017\COMMUNITY\VC\TOOLS\MSVC\14.11.25503\INCLUDE\NEW
C:\PROGRAM FILES (X86)\MICROSOFT VISUAL STUDIO\2017\COMMUNITY\VC\TOOLS\MSVC\14.11.25503\INCLUDE\VCRUNTIME_NEW.H
C:\PROGRAM FILES (X86)\MICROSOFT VISUAL STUDIO\2017\COMMUNITY\VC\TOOLS\MSVC\14.11.25503\INCLUDE\XUTILITY
C:\PROGRAM FILES (X86)\MICROSOFT VISUAL STUDIO\2017\COMMUNITY\VC\TOOLS\MSVC\14.11.25503\INCLUDE\UTILITY
C:\PROGRAM FILES (X86)\MICROSOFT VISUAL STUDIO\2017\COMMUNITY\VC\TOOLS\MSVC\14.11.25503\INCLUDE\IOSFWD
C:\PROGRAM FILES (X86)\WINDOWS KITS\10\INCLUDE\10.0.17134.0\UCRT\CRTDBG.H
C:\PROGRAM FILES (X86)\MICROSOFT VISUAL STUDIO\2017\COMMUNITY\VC\TOOLS\MSVC\14.11.25503\INCLUDE\VCRUNTIME_NEW_DEBUG.H
C:\PROGRAM FILES (X86)\MICROSOFT VISUAL STUDIO\2017\COMMUNITY\VC\TOOLS\MSVC\14.11.25503\INCLUDE\XATOMIC0.H
C:\PROGRAM FILES (X86)\MICROSOFT VISUAL STUDIO\2017\COMMUNITY\VC\TOOLS\MSVC\14.11.25503\INCLUDE\INTRIN0.H
C:\PROGRAM FILES (X86)\MICROSOFT VISUAL STUDIO\2017\COMMUNITY\VC\TOOLS\MSVC\14.11.25503\INCLUDE\TYPEINFO
C:\PROGRAM FILES (X86)\MICROSOFT VISUAL STUDIO\2017\COMMUNITY\VC\TOOLS\MSVC\14.11.25503\INCLUDE\VCRUNTIME_TYPEINFO.H
C:\PROGRAM FILES (X86)\MICROSOFT VISUAL STUDIO\2017\COMMUNITY\VC\TOOLS\MSVC\14.11.25503\INCLUDE\XLOCINFO
C:\PROGRAM FILES (X86)\MICROSOFT VISUAL STUDIO\2017\COMMUNITY\VC\TOOLS\MSVC\14.11.25503\INCLUDE\XLOCINFO.H
C:\PROGRAM FILES (X86)\WINDOWS KITS\10\INCLUDE\10.0.17134.0\UCRT\CTYPE.H
C:\PROGRAM FILES (X86)\WINDOWS KITS\10\INCLUDE\10.0.17134.0\UCRT\LOCALE.H
C:\PROGRAM FILES (X86)\MICROSOFT VISUAL STUDIO\2017\COMMUNITY\VC\TOOLS\MSVC\14.11.25503\INCLUDE\XFACET
C:\PROGRAM FILES (X86)\MICROSOFT VISUAL STUDIO\2017\COMMUNITY\VC\TOOLS\MSVC\14.11.25503\INCLUDE\SYSTEM_ERROR
C:\PROGRAM FILES (X86)\MICROSOFT VISUAL STUDIO\2017\COMMUNITY\VC\TOOLS\MSVC\14.11.25503\INCLUDE\CERRNO
C:\PROGRAM FILES (X86)\MICROSOFT VISUAL STUDIO\2017\COMMUNITY\VC\TOOLS\MSVC\14.11.25503\INCLUDE\XCALL_ONCE.H
C:\PROGRAM FILES (X86)\WINDOWS KITS\10\INCLUDE\10.0.17134.0\UCRT\SHARE.H
C:\PROGRAM FILES (X86)\MICROSOFT VISUAL STUDIO\2017\COMMUNITY\VC\TOOLS\MSVC\14.11.25503\INCLUDE\CTIME
C:\PROGRAM FILES (X86)\WINDOWS KITS\10\INCLUDE\10.0.17134.0\UCRT\TIME.H
C:\PROGRAM FILES (X86)\MICROSOFT VISUAL STUDIO\2017\COMMUNITY\VC\TOOLS\MSVC\14.11.25503\INCLUDE\VECTOR
C:\PROGRAM FILES (X86)\MICROSOFT VISUAL STUDIO\2017\COMMUNITY\VC\TOOLS\MSVC\14.11.25503\INCLUDE\XMEMORY
C:\PROGRAM FILES (X86)\WINDOWS KITS\10\INCLUDE\10.0.17134.0\UCRT\CONIO.H
C:\USERS\PIMWU\DOCUMENTS\OPENCV-3.4.0\BUILD\INSTALL\INCLUDE\OPENCV2\ML.HPP
C:\USERS\PIMWU\DOCUMENTS\OPENCV-3.4.0\BUILD\INSTALL\INCLUDE\OPENCV2\CORE.HPP
C:\USERS\PIMWU\DOCUMENTS\OPENCV-3.4.0\BUILD\INSTALL\INCLUDE\OPENCV2\CORE\CVDEF.H
C:\USERS\PIMWU\DOCUMENTS\OPENCV-3.4.0\BUILD\INSTALL\INCLUDE\OPENCV2\CORE\HAL\INTERFACE.H
C:\USERS\PIMWU\DOCUMENTS\OPENCV-3.4.0\BUILD\INSTALL\INCLUDE\OPENCV2\CORE\CV_CPU_DISPATCH.H
C:\PROGRAM FILES (X86)\MICROSOFT VISUAL STUDIO\2017\COMMUNITY\VC\TOOLS\MSVC\14.11.25503\INCLUDE\EMMINTRIN.H
C:\PROGRAM FILES (X86)\MICROSOFT VISUAL STUDIO\2017\COMMUNITY\VC\TOOLS\MSVC\14.11.25503\INCLUDE\XMMINTRIN.H
C:\PROGRAM FILES (X86)\MICROSOFT VISUAL STUDIO\2017\COMMUNITY\VC\TOOLS\MSVC\14.11.25503\INCLUDE\MMINTRIN.H
C:\PROGRAM FILES (X86)\MICROSOFT VISUAL STUDIO\2017\COMMUNITY\VC\TOOLS\MSVC\14.11.25503\INCLUDE\INTRIN.H
C:\PROGRAM FILES (X86)\MICROSOFT VISUAL STUDIO\2017\COMMUNITY\VC\TOOLS\MSVC\14.11.25503\INCLUDE\SETJMP.H
C:\PROGRAM FILES (X86)\MICROSOFT VISUAL STUDIO\2017\COMMUNITY\VC\TOOLS\MSVC\14.11.25503\INCLUDE\IMMINTRIN.H
C:\PROGRAM FILES (X86)\MICROSOFT VISUAL STUDIO\2017\COMMUNITY\VC\TOOLS\MSVC\14.11.25503\INCLUDE\WMMINTRIN.H
C:\PROGRAM FILES (X86)\MICROSOFT VISUAL STUDIO\2017\COMMUNITY\VC\TOOLS\MSVC\14.11.25503\INCLUDE\NMMINTRIN.H
C:\PROGRAM FILES (X86)\MICROSOFT VISUAL STUDIO\2017\COMMUNITY\VC\TOOLS\MSVC\14.11.25503\INCLUDE\SMMINTRIN.H
C:\PROGRAM FILES (X86)\MICROSOFT VISUAL STUDIO\2017\COMMUNITY\VC\TOOLS\MSVC\14.11.25503\INCLUDE\TMMINTRIN.H
C:\PROGRAM FILES (X86)\MICROSOFT VISUAL STUDIO\2017\COMMUNITY\VC\TOOLS\MSVC\14.11.25503\INCLUDE\PMMINTRIN.H
C:\PROGRAM FILES (X86)\MICROSOFT VISUAL STUDIO\2017\COMMUNITY\VC\TOOLS\MSVC\14.11.25503\INCLUDE\ZMMINTRIN.H
C:\PROGRAM FILES (X86)\MICROSOFT VISUAL STUDIO\2017\COMMUNITY\VC\TOOLS\MSVC\14.11.25503\INCLUDE\AMMINTRIN.H
C:\USERS\PIMWU\DOCUMENTS\OPENCV-3.4.0\BUILD\INSTALL\INCLUDE\OPENCV2\CORE\VERSION.HPP
C:\USERS\PIMWU\DOCUMENTS\OPENCV-3.4.0\BUILD\INSTALL\INCLUDE\OPENCV2\CORE\BASE.HPP
C:\USERS\PIMWU\DOCUMENTS\OPENCV-3.4.0\BUILD\INSTALL\INCLUDE\OPENCV2\OPENCV_MODULES.HPP
C:\PROGRAM FILES (X86)\MICROSOFT VISUAL STUDIO\2017\COMMUNITY\VC\TOOLS\MSVC\14.11.25503\INCLUDE\ALGORITHM
C:\USERS\PIMWU\DOCUMENTS\OPENCV-3.4.0\BUILD\INSTALL\INCLUDE\OPENCV2\CORE\CVSTD.HPP
C:\PROGRAM FILES (X86)\MICROSOFT VISUAL STUDIO\2017\COMMUNITY\VC\TOOLS\MSVC\14.11.25503\INCLUDE\CCTYPE
C:\PROGRAM FILES (X86)\MICROSOFT VISUAL STUDIO\2017\COMMUNITY\VC\TOOLS\MSVC\14.11.25503\INCLUDE\STRING
C:\PROGRAM FILES (X86)\MICROSOFT VISUAL STUDIO\2017\COMMUNITY\VC\TOOLS\MSVC\14.11.25503\INCLUDE\XSTRING_INSERT.H
C:\USERS\PIMWU\DOCUMENTS\OPENCV-3.4.0\BUILD\INSTALL\INCLUDE\OPENCV2\CORE\PTR.INL.HPP
C:\USERS\PIMWU\DOCUMENTS\OPENCV-3.4.0\BUILD\INSTALL\INCLUDE\OPENCV2\CORE\NEON_UTILS.HPP
C:\USERS\PIMWU\DOCUMENTS\OPENCV-3.4.0\BUILD\INSTALL\INCLUDE\OPENCV2\CORE\VSX_UTILS.HPP
C:\USERS\PIMWU\DOCUMENTS\OPENCV-3.4.0\BUILD\INSTALL\INCLUDE\OPENCV2\CORE\TRAITS.HPP
C:\USERS\PIMWU\DOCUMENTS\OPENCV-3.4.0\BUILD\INSTALL\INCLUDE\OPENCV2\CORE\MATX.HPP
C:\USERS\PIMWU\DOCUMENTS\OPENCV-3.4.0\BUILD\INSTALL\INCLUDE\OPENCV2\CORE\SATURATE.HPP
C:\USERS\PIMWU\DOCUMENTS\OPENCV-3.4.0\BUILD\INSTALL\INCLUDE\OPENCV2\CORE\FAST_MATH.HPP
C:\USERS\PIMWU\DOCUMENTS\OPENCV-3.4.0\BUILD\INSTALL\INCLUDE\OPENCV2\CORE\TYPES.HPP
C:\USERS\PIMWU\DOCUMENTS\OPENCV-3.4.0\BUILD\INSTALL\INCLUDE\OPENCV2\CORE\MAT.HPP
C:\USERS\PIMWU\DOCUMENTS\OPENCV-3.4.0\BUILD\INSTALL\INCLUDE\OPENCV2\CORE\BUFFERPOOL.HPP
C:\USERS\PIMWU\DOCUMENTS\OPENCV-3.4.0\BUILD\INSTALL\INCLUDE\OPENCV2\CORE\MAT.INL.HPP
C:\USERS\PIMWU\DOCUMENTS\OPENCV-3.4.0\BUILD\INSTALL\INCLUDE\OPENCV2\CORE\PERSISTENCE.HPP
C:\USERS\PIMWU\DOCUMENTS\OPENCV-3.4.0\BUILD\INSTALL\INCLUDE\OPENCV2\CORE\OPERATIONS.HPP
C:\USERS\PIMWU\DOCUMENTS\OPENCV-3.4.0\BUILD\INSTALL\INCLUDE\OPENCV2\CORE\CVSTD.INL.HPP
C:\PROGRAM FILES (X86)\MICROSOFT VISUAL STUDIO\2017\COMMUNITY\VC\TOOLS\MSVC\14.11.25503\INCLUDE\COMPLEX
C:\PROGRAM FILES (X86)\MICROSOFT VISUAL STUDIO\2017\COMMUNITY\VC\TOOLS\MSVC\14.11.25503\INCLUDE\CCOMPLEX
C:\PROGRAM FILES (X86)\MICROSOFT VISUAL STUDIO\2017\COMMUNITY\VC\TOOLS\MSVC\14.11.25503\INCLUDE\SSTREAM
C:\PROGRAM FILES (X86)\MICROSOFT VISUAL STUDIO\2017\COMMUNITY\VC\TOOLS\MSVC\14.11.25503\INCLUDE\XCOMPLEX
C:\USERS\PIMWU\DOCUMENTS\OPENCV-3.4.0\BUILD\INSTALL\INCLUDE\OPENCV2\CORE\UTILITY.HPP
C:\PROGRAM FILES (X86)\MICROSOFT VISUAL STUDIO\2017\COMMUNITY\VC\TOOLS\MSVC\14.11.25503\INCLUDE\FUNCTIONAL
C:\PROGRAM FILES (X86)\MICROSOFT VISUAL STUDIO\2017\COMMUNITY\VC\TOOLS\MSVC\14.11.25503\INCLUDE\TUPLE
C:\PROGRAM FILES (X86)\MICROSOFT VISUAL STUDIO\2017\COMMUNITY\VC\TOOLS\MSVC\14.11.25503\INCLUDE\XFUNCTIONAL
C:\USERS\PIMWU\DOCUMENTS\OPENCV-3.4.0\BUILD\INSTALL\INCLUDE\OPENCV2\CORE\CORE_C.H
C:\USERS\PIMWU\DOCUMENTS\OPENCV-3.4.0\BUILD\INSTALL\INCLUDE\OPENCV2\CORE\TYPES_C.H
C:\PROGRAM FILES (X86)\WINDOWS KITS\10\INCLUDE\10.0.17134.0\UCRT\ASSERT.H
C:\USERS\PIMWU\DOCUMENTS\OPENCV-3.4.0\BUILD\INSTALL\INCLUDE\OPENCV2\CORE\OPTIM.HPP
C:\USERS\PIMWU\DOCUMENTS\OPENCV-3.4.0\BUILD\INSTALL\INCLUDE\OPENCV2\CORE\OVX.HPP
C:\PROGRAM FILES (X86)\MICROSOFT VISUAL STUDIO\2017\COMMUNITY\VC\TOOLS\MSVC\14.11.25503\INCLUDE\MAP
C:\PROGRAM FILES (X86)\MICROSOFT VISUAL STUDIO\2017\COMMUNITY\VC\TOOLS\MSVC\14.11.25503\INCLUDE\XTREE
C:\USERS\PIMWU\DOCUMENTS\OPENCV-3.4.0\BUILD\INSTALL\INCLUDE\OPENCV2\ML\ML.INL.HPP
C:\USERS\PIMWU\DOCUMENTS\OPENCV-3.4.0\BUILD\INSTALL\INCLUDE\OPENCV2\OPENCV.HPP
C:\USERS\PIMWU\DOCUMENTS\OPENCV-3.4.0\BUILD\INSTALL\INCLUDE\OPENCV2\CALIB3D.HPP
C:\USERS\PIMWU\DOCUMENTS\OPENCV-3.4.0\BUILD\INSTALL\INCLUDE\OPENCV2\FEATURES2D.HPP
C:\USERS\PIMWU\DOCUMENTS\OPENCV-3.4.0\BUILD\INSTALL\INCLUDE\OPENCV2\FLANN\MINIFLANN.HPP
C:\USERS\PIMWU\DOCUMENTS\OPENCV-3.4.0\BUILD\INSTALL\INCLUDE\OPENCV2\FLANN\DEFINES.H
C:\USERS\PIMWU\DOCUMENTS\OPENCV-3.4.0\BUILD\INSTALL\INCLUDE\OPENCV2\FLANN\CONFIG.H
C:\USERS\PIMWU\DOCUMENTS\OPENCV-3.4.0\BUILD\INSTALL\INCLUDE\OPENCV2\CORE\AFFINE.HPP
C:\USERS\PIMWU\DOCUMENTS\OPENCV-3.4.0\BUILD\INSTALL\INCLUDE\OPENCV2\CALIB3D\CALIB3D_C.H
C:\USERS\PIMWU\DOCUMENTS\OPENCV-3.4.0\BUILD\INSTALL\INCLUDE\OPENCV2\FLANN.HPP
C:\USERS\PIMWU\DOCUMENTS\OPENCV-3.4.0\BUILD\INSTALL\INCLUDE\OPENCV2\FLANN\FLANN_BASE.HPP
C:\PROGRAM FILES (X86)\MICROSOFT VISUAL STUDIO\2017\COMMUNITY\VC\TOOLS\MSVC\14.11.25503\INCLUDE\CASSERT
C:\USERS\PIMWU\DOCUMENTS\OPENCV-3.4.0\BUILD\INSTALL\INCLUDE\OPENCV2\FLANN\GENERAL.H
C:\USERS\PIMWU\DOCUMENTS\OPENCV-3.4.0\BUILD\INSTALL\INCLUDE\OPENCV2\FLANN\MATRIX.H
C:\USERS\PIMWU\DOCUMENTS\OPENCV-3.4.0\BUILD\INSTALL\INCLUDE\OPENCV2\FLANN\PARAMS.H
C:\USERS\PIMWU\DOCUMENTS\OPENCV-3.4.0\BUILD\INSTALL\INCLUDE\OPENCV2\FLANN\ANY.H
C:\USERS\PIMWU\DOCUMENTS\OPENCV-3.4.0\BUILD\INSTALL\INCLUDE\OPENCV2\FLANN\SAVING.H
C:\USERS\PIMWU\DOCUMENTS\OPENCV-3.4.0\BUILD\INSTALL\INCLUDE\OPENCV2\FLANN\NN_INDEX.H
C:\USERS\PIMWU\DOCUMENTS\OPENCV-3.4.0\BUILD\INSTALL\INCLUDE\OPENCV2\FLANN\RESULT_SET.H
C:\PROGRAM FILES (X86)\MICROSOFT VISUAL STUDIO\2017\COMMUNITY\VC\TOOLS\MSVC\14.11.25503\INCLUDE\SET
C:\USERS\PIMWU\DOCUMENTS\OPENCV-3.4.0\BUILD\INSTALL\INCLUDE\OPENCV2\FLANN\ALL_INDICES.H
C:\USERS\PIMWU\DOCUMENTS\OPENCV-3.4.0\BUILD\INSTALL\INCLUDE\OPENCV2\FLANN\KDTREE_INDEX.H
C:\USERS\PIMWU\DOCUMENTS\OPENCV-3.4.0\BUILD\INSTALL\INCLUDE\OPENCV2\FLANN\DYNAMIC_BITSET.H
C:\USERS\PIMWU\DOCUMENTS\OPENCV-3.4.0\BUILD\INSTALL\INCLUDE\OPENCV2\FLANN\DIST.H
C:\USERS\PIMWU\DOCUMENTS\OPENCV-3.4.0\BUILD\INSTALL\INCLUDE\OPENCV2\FLANN\HEAP.H
C:\USERS\PIMWU\DOCUMENTS\OPENCV-3.4.0\BUILD\INSTALL\INCLUDE\OPENCV2\FLANN\ALLOCATOR.H
C:\USERS\PIMWU\DOCUMENTS\OPENCV-3.4.0\BUILD\INSTALL\INCLUDE\OPENCV2\FLANN\RANDOM.H
C:\USERS\PIMWU\DOCUMENTS\OPENCV-3.4.0\BUILD\INSTALL\INCLUDE\OPENCV2\FLANN\KDTREE_SINGLE_INDEX.H
C:\USERS\PIMWU\DOCUMENTS\OPENCV-3.4.0\BUILD\INSTALL\INCLUDE\OPENCV2\FLANN\KMEANS_INDEX.H
C:\USERS\PIMWU\DOCUMENTS\OPENCV-3.4.0\BUILD\INSTALL\INCLUDE\OPENCV2\FLANN\LOGGER.H
C:\PROGRAM FILES (X86)\MICROSOFT VISUAL STUDIO\2017\COMMUNITY\VC\TOOLS\MSVC\14.11.25503\INCLUDE\STDARG.H
C:\USERS\PIMWU\DOCUMENTS\OPENCV-3.4.0\BUILD\INSTALL\INCLUDE\OPENCV2\FLANN\COMPOSITE_INDEX.H
C:\USERS\PIMWU\DOCUMENTS\OPENCV-3.4.0\BUILD\INSTALL\INCLUDE\OPENCV2\FLANN\LINEAR_INDEX.H
C:\USERS\PIMWU\DOCUMENTS\OPENCV-3.4.0\BUILD\INSTALL\INCLUDE\OPENCV2\FLANN\HIERARCHICAL_CLUSTERING_INDEX.H
C:\USERS\PIMWU\DOCUMENTS\OPENCV-3.4.0\BUILD\INSTALL\INCLUDE\OPENCV2\FLANN\LSH_INDEX.H
C:\USERS\PIMWU\DOCUMENTS\OPENCV-3.4.0\BUILD\INSTALL\INCLUDE\OPENCV2\FLANN\LSH_TABLE.H
C:\PROGRAM FILES (X86)\MICROSOFT VISUAL STUDIO\2017\COMMUNITY\VC\TOOLS\MSVC\14.11.25503\INCLUDE\IOMANIP
C:\PROGRAM FILES (X86)\MICROSOFT VISUAL STUDIO\2017\COMMUNITY\VC\TOOLS\MSVC\14.11.25503\INCLUDE\XLOCMON
C:\PROGRAM FILES (X86)\MICROSOFT VISUAL STUDIO\2017\COMMUNITY\VC\TOOLS\MSVC\14.11.25503\INCLUDE\XLOCTIME
C:\USERS\PIMWU\DOCUMENTS\OPENCV-3.4.0\BUILD\INSTALL\INCLUDE\OPENCV2\FLANN\AUTOTUNED_INDEX.H
C:\USERS\PIMWU\DOCUMENTS\OPENCV-3.4.0\BUILD\INSTALL\INCLUDE\OPENCV2\FLANN\GROUND_TRUTH.H
C:\USERS\PIMWU\DOCUMENTS\OPENCV-3.4.0\BUILD\INSTALL\INCLUDE\OPENCV2\FLANN\INDEX_TESTING.H
C:\USERS\PIMWU\DOCUMENTS\OPENCV-3.4.0\BUILD\INSTALL\INCLUDE\OPENCV2\FLANN\TIMER.H
C:\USERS\PIMWU\DOCUMENTS\OPENCV-3.4.0\BUILD\INSTALL\INCLUDE\OPENCV2\FLANN\SAMPLING.H
C:\USERS\PIMWU\DOCUMENTS\OPENCV-3.4.0\BUILD\INSTALL\INCLUDE\OPENCV2\HIGHGUI.HPP
C:\USERS\PIMWU\DOCUMENTS\OPENCV-3.4.0\BUILD\INSTALL\INCLUDE\OPENCV2\IMGCODECS.HPP
C:\USERS\PIMWU\DOCUMENTS\OPENCV-3.4.0\BUILD\INSTALL\INCLUDE\OPENCV2\VIDEOIO.HPP
C:\USERS\PIMWU\DOCUMENTS\OPENCV-3.4.0\BUILD\INSTALL\INCLUDE\OPENCV2\HIGHGUI\HIGHGUI_C.H
C:\USERS\PIMWU\DOCUMENTS\OPENCV-3.4.0\BUILD\INSTALL\INCLUDE\OPENCV2\IMGPROC\IMGPROC_C.H
C:\USERS\PIMWU\DOCUMENTS\OPENCV-3.4.0\BUILD\INSTALL\INCLUDE\OPENCV2\IMGPROC\TYPES_C.H
C:\USERS\PIMWU\DOCUMENTS\OPENCV-3.4.0\BUILD\INSTALL\INCLUDE\OPENCV2\IMGCODECS\IMGCODECS_C.H
C:\USERS\PIMWU\DOCUMENTS\OPENCV-3.4.0\BUILD\INSTALL\INCLUDE\OPENCV2\VIDEOIO\VIDEOIO_C.H
C:\USERS\PIMWU\DOCUMENTS\OPENCV-3.4.0\BUILD\INSTALL\INCLUDE\OPENCV2\IMGPROC.HPP
C:\USERS\PIMWU\DOCUMENTS\OPENCV-3.4.0\BUILD\INSTALL\INCLUDE\OPENCV2\OBJDETECT.HPP
C:\USERS\PIMWU\DOCUMENTS\OPENCV-3.4.0\BUILD\INSTALL\INCLUDE\OPENCV2\OBJDETECT\DETECTION_BASED_TRACKER.HPP
C:\USERS\PIMWU\DOCUMENTS\OPENCV-3.4.0\BUILD\INSTALL\INCLUDE\OPENCV2\OBJDETECT\OBJDETECT_C.H
C:\PROGRAM FILES (X86)\MICROSOFT VISUAL STUDIO\2017\COMMUNITY\VC\TOOLS\MSVC\14.11.25503\INCLUDE\DEQUE
C:\USERS\PIMWU\DOCUMENTS\OPENCV-3.4.0\BUILD\INSTALL\INCLUDE\OPENCV2\PHOTO.HPP
C:\USERS\PIMWU\DOCUMENTS\OPENCV-3.4.0\BUILD\INSTALL\INCLUDE\OPENCV2\PHOTO\PHOTO_C.H
C:\USERS\PIMWU\DOCUMENTS\OPENCV-3.4.0\BUILD\INSTALL\INCLUDE\OPENCV2\SHAPE.HPP
C:\USERS\PIMWU\DOCUMENTS\OPENCV-3.4.0\BUILD\INSTALL\INCLUDE\OPENCV2\SHAPE\EMDL1.HPP
C:\USERS\PIMWU\DOCUMENTS\OPENCV-3.4.0\BUILD\INSTALL\INCLUDE\OPENCV2\SHAPE\SHAPE_TRANSFORMER.HPP
C:\USERS\PIMWU\DOCUMENTS\OPENCV-3.4.0\BUILD\INSTALL\INCLUDE\OPENCV2\SHAPE\HIST_COST.HPP
C:\USERS\PIMWU\DOCUMENTS\OPENCV-3.4.0\BUILD\INSTALL\INCLUDE\OPENCV2\SHAPE\SHAPE_DISTANCE.HPP
C:\USERS\PIMWU\DOCUMENTS\OPENCV-3.4.0\BUILD\INSTALL\INCLUDE\OPENCV2\STITCHING.HPP
C:\USERS\PIMWU\DOCUMENTS\OPENCV-3.4.0\BUILD\INSTALL\INCLUDE\OPENCV2\STITCHING\WARPERS.HPP
C:\USERS\PIMWU\DOCUMENTS\OPENCV-3.4.0\BUILD\INSTALL\INCLUDE\OPENCV2\STITCHING\DETAIL\WARPERS.HPP
C:\USERS\PIMWU\DOCUMENTS\OPENCV-3.4.0\BUILD\INSTALL\INCLUDE\OPENCV2\CORE\CUDA.HPP
C:\USERS\PIMWU\DOCUMENTS\OPENCV-3.4.0\BUILD\INSTALL\INCLUDE\OPENCV2\CORE\CUDA_TYPES.HPP
C:\USERS\PIMWU\DOCUMENTS\OPENCV-3.4.0\BUILD\INSTALL\INCLUDE\OPENCV2\CORE\CUDA.INL.HPP
C:\USERS\PIMWU\DOCUMENTS\OPENCV-3.4.0\BUILD\INSTALL\INCLUDE\OPENCV2\STITCHING\DETAIL\WARPERS_INL.HPP
C:\USERS\PIMWU\DOCUMENTS\OPENCV-3.4.0\BUILD\INSTALL\INCLUDE\OPENCV2\STITCHING\DETAIL\MATCHERS.HPP
C:\USERS\PIMWU\DOCUMENTS\OPENCV-3.4.0\BUILD\INSTALL\INCLUDE\OPENCV2\STITCHING\DETAIL\MOTION_ESTIMATORS.HPP
C:\USERS\PIMWU\DOCUMENTS\OPENCV-3.4.0\BUILD\INSTALL\INCLUDE\OPENCV2\STITCHING\DETAIL\UTIL.HPP
C:\PROGRAM FILES (X86)\MICROSOFT VISUAL STUDIO\2017\COMMUNITY\VC\TOOLS\MSVC\14.11.25503\INCLUDE\LIST
C:\USERS\PIMWU\DOCUMENTS\OPENCV-3.4.0\BUILD\INSTALL\INCLUDE\OPENCV2\STITCHING\DETAIL\UTIL_INL.HPP
C:\PROGRAM FILES (X86)\MICROSOFT VISUAL STUDIO\2017\COMMUNITY\VC\TOOLS\MSVC\14.11.25503\INCLUDE\QUEUE
C:\USERS\PIMWU\DOCUMENTS\OPENCV-3.4.0\BUILD\INSTALL\INCLUDE\OPENCV2\STITCHING\DETAIL\CAMERA.HPP
C:\USERS\PIMWU\DOCUMENTS\OPENCV-3.4.0\BUILD\INSTALL\INCLUDE\OPENCV2\STITCHING\DETAIL\EXPOSURE_COMPENSATE.HPP
C:\USERS\PIMWU\DOCUMENTS\OPENCV-3.4.0\BUILD\INSTALL\INCLUDE\OPENCV2\STITCHING\DETAIL\SEAM_FINDERS.HPP
C:\USERS\PIMWU\DOCUMENTS\OPENCV-3.4.0\BUILD\INSTALL\INCLUDE\OPENCV2\STITCHING\DETAIL\BLENDERS.HPP
C:\USERS\PIMWU\DOCUMENTS\OPENCV-3.4.0\BUILD\INSTALL\INCLUDE\OPENCV2\SUPERRES.HPP
C:\USERS\PIMWU\DOCUMENTS\OPENCV-3.4.0\BUILD\INSTALL\INCLUDE\OPENCV2\SUPERRES\OPTICAL_FLOW.HPP
C:\USERS\PIMWU\DOCUMENTS\OPENCV-3.4.0\BUILD\INSTALL\INCLUDE\OPENCV2\VIDEO.HPP
C:\USERS\PIMWU\DOCUMENTS\OPENCV-3.4.0\BUILD\INSTALL\INCLUDE\OPENCV2\VIDEO\TRACKING.HPP
C:\USERS\PIMWU\DOCUMENTS\OPENCV-3.4.0\BUILD\INSTALL\INCLUDE\OPENCV2\VIDEO\BACKGROUND_SEGM.HPP
C:\USERS\PIMWU\DOCUMENTS\OPENCV-3.4.0\BUILD\INSTALL\INCLUDE\OPENCV2\VIDEO\TRACKING_C.H
C:\USERS\PIMWU\DOCUMENTS\OPENCV-3.4.0\BUILD\INSTALL\INCLUDE\OPENCV2\VIDEOSTAB.HPP
C:\USERS\PIMWU\DOCUMENTS\OPENCV-3.4.0\BUILD\INSTALL\INCLUDE\OPENCV2\VIDEOSTAB\STABILIZER.HPP
C:\USERS\PIMWU\DOCUMENTS\OPENCV-3.4.0\BUILD\INSTALL\INCLUDE\OPENCV2\VIDEOSTAB\GLOBAL_MOTION.HPP
C:\PROGRAM FILES (X86)\MICROSOFT VISUAL STUDIO\2017\COMMUNITY\VC\TOOLS\MSVC\14.11.25503\INCLUDE\FSTREAM
C:\USERS\PIMWU\DOCUMENTS\OPENCV-3.4.0\BUILD\INSTALL\INCLUDE\OPENCV2\VIDEOSTAB\OPTICAL_FLOW.HPP
C:\USERS\PIMWU\DOCUMENTS\OPENCV-3.4.0\BUILD\INSTALL\INCLUDE\OPENCV2\CUDAOPTFLOW.HPP
C:\USERS\PIMWU\DOCUMENTS\OPENCV-3.4.0\BUILD\INSTALL\INCLUDE\OPENCV2\VIDEOSTAB\MOTION_CORE.HPP
C:\USERS\PIMWU\DOCUMENTS\OPENCV-3.4.0\BUILD\INSTALL\INCLUDE\OPENCV2\VIDEOSTAB\OUTLIER_REJECTION.HPP
C:\USERS\PIMWU\DOCUMENTS\OPENCV-3.4.0\BUILD\INSTALL\INCLUDE\OPENCV2\CUDAIMGPROC.HPP
C:\USERS\PIMWU\DOCUMENTS\OPENCV-3.4.0\BUILD\INSTALL\INCLUDE\OPENCV2\VIDEOSTAB\MOTION_STABILIZING.HPP
C:\USERS\PIMWU\DOCUMENTS\OPENCV-3.4.0\BUILD\INSTALL\INCLUDE\OPENCV2\VIDEOSTAB\FRAME_SOURCE.HPP
C:\USERS\PIMWU\DOCUMENTS\OPENCV-3.4.0\BUILD\INSTALL\INCLUDE\OPENCV2\VIDEOSTAB\LOG.HPP
C:\USERS\PIMWU\DOCUMENTS\OPENCV-3.4.0\BUILD\INSTALL\INCLUDE\OPENCV2\VIDEOSTAB\INPAINTING.HPP
C:\USERS\PIMWU\DOCUMENTS\OPENCV-3.4.0\BUILD\INSTALL\INCLUDE\OPENCV2\VIDEOSTAB\FAST_MARCHING.HPP
C:\USERS\PIMWU\DOCUMENTS\OPENCV-3.4.0\BUILD\INSTALL\INCLUDE\OPENCV2\VIDEOSTAB\FAST_MARCHING_INL.HPP
C:\USERS\PIMWU\DOCUMENTS\OPENCV-3.4.0\BUILD\INSTALL\INCLUDE\OPENCV2\VIDEOSTAB\DEBLURRING.HPP
C:\USERS\PIMWU\DOCUMENTS\OPENCV-3.4.0\BUILD\INSTALL\INCLUDE\OPENCV2\VIDEOSTAB\WOBBLE_SUPPRESSION.HPP
C:\USERS\PIMWU\DOCUMENTS\OPENCV-3.4.0\BUILD\INSTALL\INCLUDE\OPENCV2\VIDEOSTAB\RING_BUFFER.HPP
C:\USERS\PIMWU\DOCUMENTS\OPENCV-3.4.0\BUILD\INSTALL\INCLUDE\OPENCV2\CUDAARITHM.HPP
C:\USERS\PIMWU\DOCUMENTS\OPENCV-3.4.0\BUILD\INSTALL\INCLUDE\OPENCV2\CUDABGSEGM.HPP
C:\USERS\PIMWU\DOCUMENTS\OPENCV-3.4.0\BUILD\INSTALL\INCLUDE\OPENCV2\CUDACODEC.HPP
C:\USERS\PIMWU\DOCUMENTS\OPENCV-3.4.0\BUILD\INSTALL\INCLUDE\OPENCV2\CUDAFEATURES2D.HPP
C:\USERS\PIMWU\DOCUMENTS\OPENCV-3.4.0\BUILD\INSTALL\INCLUDE\OPENCV2\CUDAFILTERS.HPP
C:\USERS\PIMWU\DOCUMENTS\OPENCV-3.4.0\BUILD\INSTALL\INCLUDE\OPENCV2\CUDAOBJDETECT.HPP
C:\USERS\PIMWU\DOCUMENTS\OPENCV-3.4.0\BUILD\INSTALL\INCLUDE\OPENCV2\CUDASTEREO.HPP
C:\USERS\PIMWU\DOCUMENTS\OPENCV-3.4.0\BUILD\INSTALL\INCLUDE\OPENCV2\CUDAWARPING.HPP
