^C:\USERS\PIMWU\SOURCE\REPOS\GMM_IMG\GMM_IMG\STDAFX.CPP
C:\USERS\PIMWU\SOURCE\REPOS\GMM_IMG\GMM_IMG\X64\DEBUG\GMM_IMG.PCH
C:\USERS\PIMWU\SOURCE\REPOS\GMM_IMG\GMM_IMG\X64\DEBUG\VC141.PDB
C:\USERS\PIMWU\SOURCE\REPOS\GMM_IMG\GMM_IMG\X64\DEBUG\VC141.IDB
C:\USERS\PIMWU\SOURCE\REPOS\GMM_IMG\GMM_IMG\X64\DEBUG\STDAFX.OBJ
^C:\USERS\PIMWU\SOURCE\REPOS\GMM_IMG\GMM_IMG\GMM_IMG.CPP
C:\USERS\PIMWU\SOURCE\REPOS\GMM_IMG\GMM_IMG\X64\DEBUG\VC141.PDB
C:\USERS\PIMWU\SOURCE\REPOS\GMM_IMG\GMM_IMG\X64\DEBUG\VC141.IDB
C:\USERS\PIMWU\SOURCE\REPOS\GMM_IMG\GMM_IMG\X64\DEBUG\GMM_IMG.OBJ
