^C:\USERS\PIMWU\DOCUMENTS\GITHUB\BEAGLESITUATION\BMS_TRACKER\EVALUATION2\STDAFX.CPP
C:\USERS\PIMWU\DOCUMENTS\GITHUB\BEAGLESITUATION\BMS_TRACKER\EVALUATION2\X64\DEBUG\EVALUATION.PCH
C:\USERS\PIMWU\DOCUMENTS\GITHUB\BEAGLESITUATION\BMS_TRACKER\EVALUATION2\X64\DEBUG\VC141.PDB
C:\USERS\PIMWU\DOCUMENTS\GITHUB\BEAGLESITUATION\BMS_TRACKER\EVALUATION2\X64\DEBUG\VC141.IDB
C:\USERS\PIMWU\DOCUMENTS\GITHUB\BEAGLESITUATION\BMS_TRACKER\EVALUATION2\X64\DEBUG\STDAFX.OBJ
^C:\USERS\PIMWU\DOCUMENTS\GITHUB\BEAGLESITUATION\BMS_TRACKER\EVALUATION2\BMS.CPP|C:\USERS\PIMWU\DOCUMENTS\GITHUB\BEAGLESITUATION\BMS_TRACKER\EVALUATION2\EVALUATION.CPP|C:\USERS\PIMWU\DOCUMENTS\GITHUB\BEAGLESITUATION\BMS_TRACKER\EVALUATION2\GROUNDTRUTH.CPP|C:\USERS\PIMWU\DOCUMENTS\GITHUB\BEAGLESITUATION\BMS_TRACKER\EVALUATION2\LBP.CPP|C:\USERS\PIMWU\DOCUMENTS\GITHUB\BEAGLESITUATION\BMS_TRACKER\EVALUATION2\RADARSCREENDETECT.CPP|C:\USERS\PIMWU\DOCUMENTS\GITHUB\BEAGLESITUATION\BMS_TRACKER\EVALUATION2\SALIENCYDETECT.CPP|C:\USERS\PIMWU\DOCUMENTS\GITHUB\BEAGLESITUATION\BMS_TRACKER\EVALUATION2\TRIM.CPP
C:\USERS\PIMWU\DOCUMENTS\GITHUB\BEAGLESITUATION\BMS_TRACKER\EVALUATION2\X64\DEBUG\VC141.PDB
C:\USERS\PIMWU\DOCUMENTS\GITHUB\BEAGLESITUATION\BMS_TRACKER\EVALUATION2\X64\DEBUG\VC141.IDB
C:\USERS\PIMWU\DOCUMENTS\GITHUB\BEAGLESITUATION\BMS_TRACKER\EVALUATION2\X64\DEBUG\BMS.OBJ
C:\USERS\PIMWU\DOCUMENTS\GITHUB\BEAGLESITUATION\BMS_TRACKER\EVALUATION2\X64\DEBUG\EVALUATION.OBJ
C:\USERS\PIMWU\DOCUMENTS\GITHUB\BEAGLESITUATION\BMS_TRACKER\EVALUATION2\X64\DEBUG\GROUNDTRUTH.OBJ
C:\USERS\PIMWU\DOCUMENTS\GITHUB\BEAGLESITUATION\BMS_TRACKER\EVALUATION2\X64\DEBUG\LBP.OBJ
C:\USERS\PIMWU\DOCUMENTS\GITHUB\BEAGLESITUATION\BMS_TRACKER\EVALUATION2\X64\DEBUG\RADARSCREENDETECT.OBJ
C:\USERS\PIMWU\DOCUMENTS\GITHUB\BEAGLESITUATION\BMS_TRACKER\EVALUATION2\X64\DEBUG\SALIENCYDETECT.OBJ
C:\USERS\PIMWU\DOCUMENTS\GITHUB\BEAGLESITUATION\BMS_TRACKER\EVALUATION2\X64\DEBUG\TRIM.OBJ
^C:\USERS\PIMWU\DOCUMENTS\GITHUB\BEAGLESITUATION\BMS_TRACKER\EVALUATION2\BMS.CPP
C:\USERS\PIMWU\DOCUMENTS\GITHUB\BEAGLESITUATION\BMS_TRACKER\EVALUATION2\X64\DEBUG\VC141.PDB
^C:\USERS\PIMWU\DOCUMENTS\GITHUB\BEAGLESITUATION\BMS_TRACKER\EVALUATION2\EVALUATION.CPP
C:\USERS\PIMWU\DOCUMENTS\GITHUB\BEAGLESITUATION\BMS_TRACKER\EVALUATION2\X64\DEBUG\VC141.PDB
^C:\USERS\PIMWU\DOCUMENTS\GITHUB\BEAGLESITUATION\BMS_TRACKER\EVALUATION2\GROUNDTRUTH.CPP
C:\USERS\PIMWU\DOCUMENTS\GITHUB\BEAGLESITUATION\BMS_TRACKER\EVALUATION2\X64\DEBUG\VC141.PDB
^C:\USERS\PIMWU\DOCUMENTS\GITHUB\BEAGLESITUATION\BMS_TRACKER\EVALUATION2\LBP.CPP
C:\USERS\PIMWU\DOCUMENTS\GITHUB\BEAGLESITUATION\BMS_TRACKER\EVALUATION2\X64\DEBUG\VC141.PDB
^C:\USERS\PIMWU\DOCUMENTS\GITHUB\BEAGLESITUATION\BMS_TRACKER\EVALUATION2\RADARSCREENDETECT.CPP
C:\USERS\PIMWU\DOCUMENTS\GITHUB\BEAGLESITUATION\BMS_TRACKER\EVALUATION2\X64\DEBUG\VC141.PDB
C:\USERS\PIMWU\DOCUMENTS\GITHUB\BEAGLESITUATION\BMS_TRACKER\EVALUATION2\X64\DEBUG\VC141.IDB
C:\USERS\PIMWU\DOCUMENTS\GITHUB\BEAGLESITUATION\BMS_TRACKER\EVALUATION2\X64\DEBUG\RADARSCREENDETECT.OBJ
^C:\USERS\PIMWU\DOCUMENTS\GITHUB\BEAGLESITUATION\BMS_TRACKER\EVALUATION2\SALIENCYDETECT.CPP
C:\USERS\PIMWU\DOCUMENTS\GITHUB\BEAGLESITUATION\BMS_TRACKER\EVALUATION2\X64\DEBUG\VC141.PDB
C:\USERS\PIMWU\DOCUMENTS\GITHUB\BEAGLESITUATION\BMS_TRACKER\EVALUATION2\X64\DEBUG\VC141.IDB
C:\USERS\PIMWU\DOCUMENTS\GITHUB\BEAGLESITUATION\BMS_TRACKER\EVALUATION2\X64\DEBUG\SALIENCYDETECT.OBJ
^C:\USERS\PIMWU\DOCUMENTS\GITHUB\BEAGLESITUATION\BMS_TRACKER\EVALUATION2\TRIM.CPP
C:\USERS\PIMWU\DOCUMENTS\GITHUB\BEAGLESITUATION\BMS_TRACKER\EVALUATION2\X64\DEBUG\VC141.PDB
^C:\USERS\PIMWU\DOCUMENTS\GITHUB\BEAGLESITUATION\BMS_TRACKER\EVALUATION2\EVALUATION.CPP|C:\USERS\PIMWU\DOCUMENTS\GITHUB\BEAGLESITUATION\BMS_TRACKER\EVALUATION2\GROUNDTRUTH.CPP|C:\USERS\PIMWU\DOCUMENTS\GITHUB\BEAGLESITUATION\BMS_TRACKER\EVALUATION2\SALIENCYDETECT.CPP
C:\USERS\PIMWU\DOCUMENTS\GITHUB\BEAGLESITUATION\BMS_TRACKER\EVALUATION2\X64\DEBUG\VC141.PDB
C:\USERS\PIMWU\DOCUMENTS\GITHUB\BEAGLESITUATION\BMS_TRACKER\EVALUATION2\X64\DEBUG\VC141.IDB
C:\USERS\PIMWU\DOCUMENTS\GITHUB\BEAGLESITUATION\BMS_TRACKER\EVALUATION2\X64\DEBUG\EVALUATION.OBJ
C:\USERS\PIMWU\DOCUMENTS\GITHUB\BEAGLESITUATION\BMS_TRACKER\EVALUATION2\X64\DEBUG\GROUNDTRUTH.OBJ
C:\USERS\PIMWU\DOCUMENTS\GITHUB\BEAGLESITUATION\BMS_TRACKER\EVALUATION2\X64\DEBUG\SALIENCYDETECT.OBJ
^C:\USERS\PIMWU\DOCUMENTS\GITHUB\BEAGLESITUATION\BMS_TRACKER\EVALUATION2\RADARSCREENDETECT.CPP|C:\USERS\PIMWU\DOCUMENTS\GITHUB\BEAGLESITUATION\BMS_TRACKER\EVALUATION2\SALIENCYDETECT.CPP
C:\USERS\PIMWU\DOCUMENTS\GITHUB\BEAGLESITUATION\BMS_TRACKER\EVALUATION2\X64\DEBUG\VC141.PDB
C:\USERS\PIMWU\DOCUMENTS\GITHUB\BEAGLESITUATION\BMS_TRACKER\EVALUATION2\X64\DEBUG\VC141.IDB
C:\USERS\PIMWU\DOCUMENTS\GITHUB\BEAGLESITUATION\BMS_TRACKER\EVALUATION2\X64\DEBUG\SALIENCYDETECT.OBJ
^C:\USERS\PIMWU\DOCUMENTS\GITHUB\BEAGLESITUATION\BMS_TRACKER\EVALUATION2\EVALUATION.CPP|C:\USERS\PIMWU\DOCUMENTS\GITHUB\BEAGLESITUATION\BMS_TRACKER\EVALUATION2\RADARSCREENDETECT.CPP
C:\USERS\PIMWU\DOCUMENTS\GITHUB\BEAGLESITUATION\BMS_TRACKER\EVALUATION2\X64\DEBUG\VC141.PDB
C:\USERS\PIMWU\DOCUMENTS\GITHUB\BEAGLESITUATION\BMS_TRACKER\EVALUATION2\X64\DEBUG\VC141.IDB
C:\USERS\PIMWU\DOCUMENTS\GITHUB\BEAGLESITUATION\BMS_TRACKER\EVALUATION2\X64\DEBUG\EVALUATION.OBJ
C:\USERS\PIMWU\DOCUMENTS\GITHUB\BEAGLESITUATION\BMS_TRACKER\EVALUATION2\X64\DEBUG\RADARSCREENDETECT.OBJ
^C:\USERS\PIMWU\DOCUMENTS\GITHUB\BEAGLESITUATION\BMS_TRACKER\EVALUATION2\EVALUATION.CPP|C:\USERS\PIMWU\DOCUMENTS\GITHUB\BEAGLESITUATION\BMS_TRACKER\EVALUATION2\GROUNDTRUTH.CPP|C:\USERS\PIMWU\DOCUMENTS\GITHUB\BEAGLESITUATION\BMS_TRACKER\EVALUATION2\RADARSCREENDETECT.CPP|C:\USERS\PIMWU\DOCUMENTS\GITHUB\BEAGLESITUATION\BMS_TRACKER\EVALUATION2\SALIENCYDETECT.CPP
C:\USERS\PIMWU\DOCUMENTS\GITHUB\BEAGLESITUATION\BMS_TRACKER\EVALUATION2\X64\DEBUG\VC141.PDB
C:\USERS\PIMWU\DOCUMENTS\GITHUB\BEAGLESITUATION\BMS_TRACKER\EVALUATION2\X64\DEBUG\VC141.IDB
C:\USERS\PIMWU\DOCUMENTS\GITHUB\BEAGLESITUATION\BMS_TRACKER\EVALUATION2\X64\DEBUG\EVALUATION.OBJ
C:\USERS\PIMWU\DOCUMENTS\GITHUB\BEAGLESITUATION\BMS_TRACKER\EVALUATION2\X64\DEBUG\GROUNDTRUTH.OBJ
C:\USERS\PIMWU\DOCUMENTS\GITHUB\BEAGLESITUATION\BMS_TRACKER\EVALUATION2\X64\DEBUG\SALIENCYDETECT.OBJ
C:\USERS\PIMWU\DOCUMENTS\GITHUB\BEAGLESITUATION\BMS_TRACKER\EVALUATION2\X64\DEBUG\RADARSCREENDETECT.OBJ
^C:\USERS\PIMWU\DOCUMENTS\GITHUB\BEAGLESITUATION\BMS_TRACKER\EVALUATION2\BMS.CPP|C:\USERS\PIMWU\DOCUMENTS\GITHUB\BEAGLESITUATION\BMS_TRACKER\EVALUATION2\DETECTION.CPP|C:\USERS\PIMWU\DOCUMENTS\GITHUB\BEAGLESITUATION\BMS_TRACKER\EVALUATION2\EVALUATION.CPP
C:\USERS\PIMWU\DOCUMENTS\GITHUB\BEAGLESITUATION\BMS_TRACKER\EVALUATION2\X64\DEBUG\VC141.PDB
C:\USERS\PIMWU\DOCUMENTS\GITHUB\BEAGLESITUATION\BMS_TRACKER\EVALUATION2\X64\DEBUG\VC141.IDB
C:\USERS\PIMWU\DOCUMENTS\GITHUB\BEAGLESITUATION\BMS_TRACKER\EVALUATION2\X64\DEBUG\BMS.OBJ
^C:\USERS\PIMWU\DOCUMENTS\GITHUB\BEAGLESITUATION\BMS_TRACKER\EVALUATION2\DETECTION.CPP
C:\USERS\PIMWU\DOCUMENTS\GITHUB\BEAGLESITUATION\BMS_TRACKER\EVALUATION2\X64\DEBUG\VC141.PDB
C:\USERS\PIMWU\DOCUMENTS\GITHUB\BEAGLESITUATION\BMS_TRACKER\EVALUATION2\X64\DEBUG\VC141.IDB
C:\USERS\PIMWU\DOCUMENTS\GITHUB\BEAGLESITUATION\BMS_TRACKER\EVALUATION2\X64\DEBUG\DETECTION.OBJ
^C:\USERS\PIMWU\DOCUMENTS\GITHUB\BEAGLESITUATION\BMS_TRACKER\EVALUATION2\DETECTION.CPP|C:\USERS\PIMWU\DOCUMENTS\GITHUB\BEAGLESITUATION\BMS_TRACKER\EVALUATION2\EVALUATION.CPP
C:\USERS\PIMWU\DOCUMENTS\GITHUB\BEAGLESITUATION\BMS_TRACKER\EVALUATION2\X64\DEBUG\VC141.PDB
C:\USERS\PIMWU\DOCUMENTS\GITHUB\BEAGLESITUATION\BMS_TRACKER\EVALUATION2\X64\DEBUG\VC141.IDB
C:\USERS\PIMWU\DOCUMENTS\GITHUB\BEAGLESITUATION\BMS_TRACKER\EVALUATION2\X64\DEBUG\EVALUATION.OBJ
^C:\USERS\PIMWU\DOCUMENTS\GITHUB\BEAGLESITUATION\BMS_TRACKER\EVALUATION2\BMS.CPP|C:\USERS\PIMWU\DOCUMENTS\GITHUB\BEAGLESITUATION\BMS_TRACKER\EVALUATION2\DATAASS.CPP|C:\USERS\PIMWU\DOCUMENTS\GITHUB\BEAGLESITUATION\BMS_TRACKER\EVALUATION2\DETECTION.CPP|C:\USERS\PIMWU\DOCUMENTS\GITHUB\BEAGLESITUATION\BMS_TRACKER\EVALUATION2\MAIN.CPP
C:\USERS\PIMWU\DOCUMENTS\GITHUB\BEAGLESITUATION\BMS_TRACKER\EVALUATION2\X64\DEBUG\VC141.PDB
C:\USERS\PIMWU\DOCUMENTS\GITHUB\BEAGLESITUATION\BMS_TRACKER\EVALUATION2\X64\DEBUG\VC141.IDB
C:\USERS\PIMWU\DOCUMENTS\GITHUB\BEAGLESITUATION\BMS_TRACKER\EVALUATION2\X64\DEBUG\BMS.OBJ
^C:\USERS\PIMWU\DOCUMENTS\GITHUB\BEAGLESITUATION\BMS_TRACKER\EVALUATION2\MAIN.CPP
C:\USERS\PIMWU\DOCUMENTS\GITHUB\BEAGLESITUATION\BMS_TRACKER\EVALUATION2\X64\DEBUG\VC141.PDB
C:\USERS\PIMWU\DOCUMENTS\GITHUB\BEAGLESITUATION\BMS_TRACKER\EVALUATION2\X64\DEBUG\VC141.IDB
C:\USERS\PIMWU\DOCUMENTS\GITHUB\BEAGLESITUATION\BMS_TRACKER\EVALUATION2\X64\DEBUG\MAIN.OBJ
^C:\USERS\PIMWU\DOCUMENTS\GITHUB\BEAGLESITUATION\BMS_TRACKER\EVALUATION2\DATAASS.CPP
C:\USERS\PIMWU\DOCUMENTS\GITHUB\BEAGLESITUATION\BMS_TRACKER\EVALUATION2\X64\DEBUG\VC141.PDB
C:\USERS\PIMWU\DOCUMENTS\GITHUB\BEAGLESITUATION\BMS_TRACKER\EVALUATION2\X64\DEBUG\VC141.IDB
C:\USERS\PIMWU\DOCUMENTS\GITHUB\BEAGLESITUATION\BMS_TRACKER\EVALUATION2\X64\DEBUG\DATAASS.OBJ
^C:\USERS\PIMWU\DOCUMENTS\GITHUB\BEAGLESITUATION\BMS_TRACKER\EVALUATION2\BMS.CPP|C:\USERS\PIMWU\DOCUMENTS\GITHUB\BEAGLESITUATION\BMS_TRACKER\EVALUATION2\DATAASS.CPP|C:\USERS\PIMWU\DOCUMENTS\GITHUB\BEAGLESITUATION\BMS_TRACKER\EVALUATION2\DETECTION.CPP|C:\USERS\PIMWU\DOCUMENTS\GITHUB\BEAGLESITUATION\BMS_TRACKER\EVALUATION2\EKF.CPP|C:\USERS\PIMWU\DOCUMENTS\GITHUB\BEAGLESITUATION\BMS_TRACKER\EVALUATION2\KALMAN.CPP|C:\USERS\PIMWU\DOCUMENTS\GITHUB\BEAGLESITUATION\BMS_TRACKER\EVALUATION2\MAIN.CPP|C:\USERS\PIMWU\DOCUMENTS\GITHUB\BEAGLESITUATION\BMS_TRACKER\EVALUATION2\TRACK.CPP
C:\USERS\PIMWU\DOCUMENTS\GITHUB\BEAGLESITUATION\BMS_TRACKER\EVALUATION2\X64\DEBUG\VC141.PDB
C:\USERS\PIMWU\DOCUMENTS\GITHUB\BEAGLESITUATION\BMS_TRACKER\EVALUATION2\X64\DEBUG\VC141.IDB
C:\USERS\PIMWU\DOCUMENTS\GITHUB\BEAGLESITUATION\BMS_TRACKER\EVALUATION2\X64\DEBUG\BMS.OBJ
C:\USERS\PIMWU\DOCUMENTS\GITHUB\BEAGLESITUATION\BMS_TRACKER\EVALUATION2\X64\DEBUG\EKF.OBJ
C:\USERS\PIMWU\DOCUMENTS\GITHUB\BEAGLESITUATION\BMS_TRACKER\EVALUATION2\X64\DEBUG\KALMAN.OBJ
C:\USERS\PIMWU\DOCUMENTS\GITHUB\BEAGLESITUATION\BMS_TRACKER\EVALUATION2\X64\DEBUG\TRACK.OBJ
^C:\USERS\PIMWU\DOCUMENTS\GITHUB\BEAGLESITUATION\BMS_TRACKER\EVALUATION2\KALMAN.CPP
C:\USERS\PIMWU\DOCUMENTS\GITHUB\BEAGLESITUATION\BMS_TRACKER\EVALUATION2\X64\DEBUG\VC141.PDB
C:\USERS\PIMWU\DOCUMENTS\GITHUB\BEAGLESITUATION\BMS_TRACKER\EVALUATION2\X64\DEBUG\VC141.IDB
C:\USERS\PIMWU\DOCUMENTS\GITHUB\BEAGLESITUATION\BMS_TRACKER\EVALUATION2\X64\DEBUG\KALMAN.OBJ
^C:\USERS\PIMWU\DOCUMENTS\GITHUB\BEAGLESITUATION\BMS_TRACKER\EVALUATION2\TRACK.CPP
C:\USERS\PIMWU\DOCUMENTS\GITHUB\BEAGLESITUATION\BMS_TRACKER\EVALUATION2\X64\DEBUG\VC141.PDB
C:\USERS\PIMWU\DOCUMENTS\GITHUB\BEAGLESITUATION\BMS_TRACKER\EVALUATION2\X64\DEBUG\VC141.IDB
C:\USERS\PIMWU\DOCUMENTS\GITHUB\BEAGLESITUATION\BMS_TRACKER\EVALUATION2\X64\DEBUG\TRACK.OBJ
^C:\USERS\PIMWU\DOCUMENTS\GITHUB\BEAGLESITUATION\BMS_TRACKER\EVALUATION2\DATAASS.CPP|C:\USERS\PIMWU\DOCUMENTS\GITHUB\BEAGLESITUATION\BMS_TRACKER\EVALUATION2\DETECTION.CPP|C:\USERS\PIMWU\DOCUMENTS\GITHUB\BEAGLESITUATION\BMS_TRACKER\EVALUATION2\EKF.CPP|C:\USERS\PIMWU\DOCUMENTS\GITHUB\BEAGLESITUATION\BMS_TRACKER\EVALUATION2\KALMAN.CPP|C:\USERS\PIMWU\DOCUMENTS\GITHUB\BEAGLESITUATION\BMS_TRACKER\EVALUATION2\TRACK.CPP
C:\USERS\PIMWU\DOCUMENTS\GITHUB\BEAGLESITUATION\BMS_TRACKER\EVALUATION2\X64\DEBUG\VC141.PDB
C:\USERS\PIMWU\DOCUMENTS\GITHUB\BEAGLESITUATION\BMS_TRACKER\EVALUATION2\X64\DEBUG\VC141.IDB
^C:\USERS\PIMWU\DOCUMENTS\GITHUB\BEAGLESITUATION\BMS_TRACKER\EVALUATION2\DATAASS.CPP|C:\USERS\PIMWU\DOCUMENTS\GITHUB\BEAGLESITUATION\BMS_TRACKER\EVALUATION2\DETECTION.CPP|C:\USERS\PIMWU\DOCUMENTS\GITHUB\BEAGLESITUATION\BMS_TRACKER\EVALUATION2\EKF.CPP|C:\USERS\PIMWU\DOCUMENTS\GITHUB\BEAGLESITUATION\BMS_TRACKER\EVALUATION2\TRACK.CPP
C:\USERS\PIMWU\DOCUMENTS\GITHUB\BEAGLESITUATION\BMS_TRACKER\EVALUATION2\X64\DEBUG\VC141.PDB
C:\USERS\PIMWU\DOCUMENTS\GITHUB\BEAGLESITUATION\BMS_TRACKER\EVALUATION2\X64\DEBUG\VC141.IDB
C:\USERS\PIMWU\DOCUMENTS\GITHUB\BEAGLESITUATION\BMS_TRACKER\EVALUATION2\X64\DEBUG\DETECTION.OBJ
^C:\USERS\PIMWU\DOCUMENTS\GITHUB\BEAGLESITUATION\BMS_TRACKER\EVALUATION2\DETECTION.CPP|C:\USERS\PIMWU\DOCUMENTS\GITHUB\BEAGLESITUATION\BMS_TRACKER\EVALUATION2\MAIN.CPP
C:\USERS\PIMWU\DOCUMENTS\GITHUB\BEAGLESITUATION\BMS_TRACKER\EVALUATION2\X64\DEBUG\VC141.PDB
C:\USERS\PIMWU\DOCUMENTS\GITHUB\BEAGLESITUATION\BMS_TRACKER\EVALUATION2\X64\DEBUG\VC141.IDB
C:\USERS\PIMWU\DOCUMENTS\GITHUB\BEAGLESITUATION\BMS_TRACKER\EVALUATION2\X64\DEBUG\DETECTION.OBJ
C:\USERS\PIMWU\DOCUMENTS\GITHUB\BEAGLESITUATION\BMS_TRACKER\EVALUATION2\X64\DEBUG\MAIN.OBJ
^C:\USERS\PIMWU\DOCUMENTS\GITHUB\BEAGLESITUATION\BMS_TRACKER\EVALUATION2\DATAASS.CPP|C:\USERS\PIMWU\DOCUMENTS\GITHUB\BEAGLESITUATION\BMS_TRACKER\EVALUATION2\DETECTION.CPP
C:\USERS\PIMWU\DOCUMENTS\GITHUB\BEAGLESITUATION\BMS_TRACKER\EVALUATION2\X64\DEBUG\VC141.PDB
C:\USERS\PIMWU\DOCUMENTS\GITHUB\BEAGLESITUATION\BMS_TRACKER\EVALUATION2\X64\DEBUG\VC141.IDB
C:\USERS\PIMWU\DOCUMENTS\GITHUB\BEAGLESITUATION\BMS_TRACKER\EVALUATION2\X64\DEBUG\DATAASS.OBJ
C:\USERS\PIMWU\DOCUMENTS\GITHUB\BEAGLESITUATION\BMS_TRACKER\EVALUATION2\X64\DEBUG\DETECTION.OBJ
^C:\USERS\PIMWU\DOCUMENTS\GITHUB\BEAGLESITUATION\BMS_TRACKER\EVALUATION2\DATAASS.CPP|C:\USERS\PIMWU\DOCUMENTS\GITHUB\BEAGLESITUATION\BMS_TRACKER\EVALUATION2\DETECTION.CPP|C:\USERS\PIMWU\DOCUMENTS\GITHUB\BEAGLESITUATION\BMS_TRACKER\EVALUATION2\EKF.CPP|C:\USERS\PIMWU\DOCUMENTS\GITHUB\BEAGLESITUATION\BMS_TRACKER\EVALUATION2\KALMAN.CPP|C:\USERS\PIMWU\DOCUMENTS\GITHUB\BEAGLESITUATION\BMS_TRACKER\EVALUATION2\MAIN.CPP|C:\USERS\PIMWU\DOCUMENTS\GITHUB\BEAGLESITUATION\BMS_TRACKER\EVALUATION2\TRACK.CPP
C:\USERS\PIMWU\DOCUMENTS\GITHUB\BEAGLESITUATION\BMS_TRACKER\EVALUATION2\X64\DEBUG\VC141.PDB
C:\USERS\PIMWU\DOCUMENTS\GITHUB\BEAGLESITUATION\BMS_TRACKER\EVALUATION2\X64\DEBUG\VC141.IDB
C:\USERS\PIMWU\DOCUMENTS\GITHUB\BEAGLESITUATION\BMS_TRACKER\EVALUATION2\X64\DEBUG\EKF.OBJ
C:\USERS\PIMWU\DOCUMENTS\GITHUB\BEAGLESITUATION\BMS_TRACKER\EVALUATION2\X64\DEBUG\KALMAN.OBJ
C:\USERS\PIMWU\DOCUMENTS\GITHUB\BEAGLESITUATION\BMS_TRACKER\EVALUATION2\X64\DEBUG\MAIN.OBJ
C:\USERS\PIMWU\DOCUMENTS\GITHUB\BEAGLESITUATION\BMS_TRACKER\EVALUATION2\X64\DEBUG\TRACK.OBJ
C:\USERS\PIMWU\DOCUMENTS\GITHUB\BEAGLESITUATION\BMS_TRACKER\EVALUATION2\X64\DEBUG\DATAASS.OBJ
C:\USERS\PIMWU\DOCUMENTS\GITHUB\BEAGLESITUATION\BMS_TRACKER\EVALUATION2\X64\DEBUG\DETECTION.OBJ
^C:\USERS\PIMWU\DOCUMENTS\GITHUB\BEAGLESITUATION\BMS_TRACKER\EVALUATION2\EKF.CPP
C:\USERS\PIMWU\DOCUMENTS\GITHUB\BEAGLESITUATION\BMS_TRACKER\EVALUATION2\X64\DEBUG\VC141.PDB
C:\USERS\PIMWU\DOCUMENTS\GITHUB\BEAGLESITUATION\BMS_TRACKER\EVALUATION2\X64\DEBUG\VC141.IDB
C:\USERS\PIMWU\DOCUMENTS\GITHUB\BEAGLESITUATION\BMS_TRACKER\EVALUATION2\X64\DEBUG\EKF.OBJ
^C:\USERS\PIMWU\DOCUMENTS\GITHUB\BEAGLESITUATION\BMS_TRACKER\EVALUATION2\DETECTION.CPP|C:\USERS\PIMWU\DOCUMENTS\GITHUB\BEAGLESITUATION\BMS_TRACKER\EVALUATION2\KALMAN.CPP
C:\USERS\PIMWU\DOCUMENTS\GITHUB\BEAGLESITUATION\BMS_TRACKER\EVALUATION2\X64\DEBUG\VC141.PDB
C:\USERS\PIMWU\DOCUMENTS\GITHUB\BEAGLESITUATION\BMS_TRACKER\EVALUATION2\X64\DEBUG\VC141.IDB
C:\USERS\PIMWU\DOCUMENTS\GITHUB\BEAGLESITUATION\BMS_TRACKER\EVALUATION2\X64\DEBUG\DETECTION.OBJ
C:\USERS\PIMWU\DOCUMENTS\GITHUB\BEAGLESITUATION\BMS_TRACKER\EVALUATION2\X64\DEBUG\KALMAN.OBJ
^C:\USERS\PIMWU\DOCUMENTS\GITHUB\BEAGLESITUATION\BMS_TRACKER\EVALUATION2\DATAASS.CPP|C:\USERS\PIMWU\DOCUMENTS\GITHUB\BEAGLESITUATION\BMS_TRACKER\EVALUATION2\EKF.CPP
C:\USERS\PIMWU\DOCUMENTS\GITHUB\BEAGLESITUATION\BMS_TRACKER\EVALUATION2\X64\DEBUG\VC141.PDB
C:\USERS\PIMWU\DOCUMENTS\GITHUB\BEAGLESITUATION\BMS_TRACKER\EVALUATION2\X64\DEBUG\VC141.IDB
C:\USERS\PIMWU\DOCUMENTS\GITHUB\BEAGLESITUATION\BMS_TRACKER\EVALUATION2\X64\DEBUG\DATAASS.OBJ
C:\USERS\PIMWU\DOCUMENTS\GITHUB\BEAGLESITUATION\BMS_TRACKER\EVALUATION2\X64\DEBUG\EKF.OBJ
^C:\USERS\PIMWU\DOCUMENTS\GITHUB\BEAGLESITUATION\BMS_TRACKER\EVALUATION2\EKF.CPP|C:\USERS\PIMWU\DOCUMENTS\GITHUB\BEAGLESITUATION\BMS_TRACKER\EVALUATION2\MAIN.CPP
C:\USERS\PIMWU\DOCUMENTS\GITHUB\BEAGLESITUATION\BMS_TRACKER\EVALUATION2\X64\DEBUG\VC141.PDB
C:\USERS\PIMWU\DOCUMENTS\GITHUB\BEAGLESITUATION\BMS_TRACKER\EVALUATION2\X64\DEBUG\VC141.IDB
C:\USERS\PIMWU\DOCUMENTS\GITHUB\BEAGLESITUATION\BMS_TRACKER\EVALUATION2\X64\DEBUG\EKF.OBJ
C:\USERS\PIMWU\DOCUMENTS\GITHUB\BEAGLESITUATION\BMS_TRACKER\EVALUATION2\X64\DEBUG\MAIN.OBJ
^C:\USERS\PIMWU\DOCUMENTS\GITHUB\BEAGLESITUATION\BMS_TRACKER\EVALUATION2\DATAASS.CPP|C:\USERS\PIMWU\DOCUMENTS\GITHUB\BEAGLESITUATION\BMS_TRACKER\EVALUATION2\EKF.CPP|C:\USERS\PIMWU\DOCUMENTS\GITHUB\BEAGLESITUATION\BMS_TRACKER\EVALUATION2\MAIN.CPP
C:\USERS\PIMWU\DOCUMENTS\GITHUB\BEAGLESITUATION\BMS_TRACKER\EVALUATION2\X64\DEBUG\VC141.PDB
C:\USERS\PIMWU\DOCUMENTS\GITHUB\BEAGLESITUATION\BMS_TRACKER\EVALUATION2\X64\DEBUG\VC141.IDB
C:\USERS\PIMWU\DOCUMENTS\GITHUB\BEAGLESITUATION\BMS_TRACKER\EVALUATION2\X64\DEBUG\DATAASS.OBJ
C:\USERS\PIMWU\DOCUMENTS\GITHUB\BEAGLESITUATION\BMS_TRACKER\EVALUATION2\X64\DEBUG\EKF.OBJ
C:\USERS\PIMWU\DOCUMENTS\GITHUB\BEAGLESITUATION\BMS_TRACKER\EVALUATION2\X64\DEBUG\MAIN.OBJ
^C:\USERS\PIMWU\DOCUMENTS\GITHUB\BEAGLESITUATION\BMS_TRACKER\EVALUATION2\DATAASS.CPP|C:\USERS\PIMWU\DOCUMENTS\GITHUB\BEAGLESITUATION\BMS_TRACKER\EVALUATION2\KALMAN.CPP
C:\USERS\PIMWU\DOCUMENTS\GITHUB\BEAGLESITUATION\BMS_TRACKER\EVALUATION2\X64\DEBUG\VC141.PDB
C:\USERS\PIMWU\DOCUMENTS\GITHUB\BEAGLESITUATION\BMS_TRACKER\EVALUATION2\X64\DEBUG\VC141.IDB
C:\USERS\PIMWU\DOCUMENTS\GITHUB\BEAGLESITUATION\BMS_TRACKER\EVALUATION2\X64\DEBUG\DATAASS.OBJ
C:\USERS\PIMWU\DOCUMENTS\GITHUB\BEAGLESITUATION\BMS_TRACKER\EVALUATION2\X64\DEBUG\KALMAN.OBJ
^C:\USERS\PIMWU\DOCUMENTS\GITHUB\BEAGLESITUATION\BMS_TRACKER\EVALUATION2\KALMAN.CPP|C:\USERS\PIMWU\DOCUMENTS\GITHUB\BEAGLESITUATION\BMS_TRACKER\EVALUATION2\TRACK.CPP
C:\USERS\PIMWU\DOCUMENTS\GITHUB\BEAGLESITUATION\BMS_TRACKER\EVALUATION2\X64\DEBUG\VC141.PDB
C:\USERS\PIMWU\DOCUMENTS\GITHUB\BEAGLESITUATION\BMS_TRACKER\EVALUATION2\X64\DEBUG\VC141.IDB
C:\USERS\PIMWU\DOCUMENTS\GITHUB\BEAGLESITUATION\BMS_TRACKER\EVALUATION2\X64\DEBUG\KALMAN.OBJ
C:\USERS\PIMWU\DOCUMENTS\GITHUB\BEAGLESITUATION\BMS_TRACKER\EVALUATION2\X64\DEBUG\TRACK.OBJ
^C:\USERS\PIMWU\DOCUMENTS\GITHUB\BEAGLESITUATION\BMS_TRACKER\EVALUATION2\DATAASS.CPP|C:\USERS\PIMWU\DOCUMENTS\GITHUB\BEAGLESITUATION\BMS_TRACKER\EVALUATION2\MAIN.CPP
C:\USERS\PIMWU\DOCUMENTS\GITHUB\BEAGLESITUATION\BMS_TRACKER\EVALUATION2\X64\DEBUG\VC141.PDB
C:\USERS\PIMWU\DOCUMENTS\GITHUB\BEAGLESITUATION\BMS_TRACKER\EVALUATION2\X64\DEBUG\VC141.IDB
C:\USERS\PIMWU\DOCUMENTS\GITHUB\BEAGLESITUATION\BMS_TRACKER\EVALUATION2\X64\DEBUG\DATAASS.OBJ
C:\USERS\PIMWU\DOCUMENTS\GITHUB\BEAGLESITUATION\BMS_TRACKER\EVALUATION2\X64\DEBUG\MAIN.OBJ
^C:\USERS\PIMWU\DOCUMENTS\GITHUB\BEAGLESITUATION\BMS_TRACKER\EVALUATION2\DATAASS.CPP|C:\USERS\PIMWU\DOCUMENTS\GITHUB\BEAGLESITUATION\BMS_TRACKER\EVALUATION2\KALMAN.CPP|C:\USERS\PIMWU\DOCUMENTS\GITHUB\BEAGLESITUATION\BMS_TRACKER\EVALUATION2\TRACK.CPP
C:\USERS\PIMWU\DOCUMENTS\GITHUB\BEAGLESITUATION\BMS_TRACKER\EVALUATION2\X64\DEBUG\VC141.PDB
C:\USERS\PIMWU\DOCUMENTS\GITHUB\BEAGLESITUATION\BMS_TRACKER\EVALUATION2\X64\DEBUG\VC141.IDB
C:\USERS\PIMWU\DOCUMENTS\GITHUB\BEAGLESITUATION\BMS_TRACKER\EVALUATION2\X64\DEBUG\DATAASS.OBJ
C:\USERS\PIMWU\DOCUMENTS\GITHUB\BEAGLESITUATION\BMS_TRACKER\EVALUATION2\X64\DEBUG\KALMAN.OBJ
C:\USERS\PIMWU\DOCUMENTS\GITHUB\BEAGLESITUATION\BMS_TRACKER\EVALUATION2\X64\DEBUG\TRACK.OBJ
^C:\USERS\PIMWU\DOCUMENTS\GITHUB\BEAGLESITUATION\BMS_TRACKER\EVALUATION2\DATAASS.CPP|C:\USERS\PIMWU\DOCUMENTS\GITHUB\BEAGLESITUATION\BMS_TRACKER\EVALUATION2\DETECTION.CPP|C:\USERS\PIMWU\DOCUMENTS\GITHUB\BEAGLESITUATION\BMS_TRACKER\EVALUATION2\KALMAN.CPP|C:\USERS\PIMWU\DOCUMENTS\GITHUB\BEAGLESITUATION\BMS_TRACKER\EVALUATION2\TRACK.CPP
C:\USERS\PIMWU\DOCUMENTS\GITHUB\BEAGLESITUATION\BMS_TRACKER\EVALUATION2\X64\DEBUG\VC141.PDB
C:\USERS\PIMWU\DOCUMENTS\GITHUB\BEAGLESITUATION\BMS_TRACKER\EVALUATION2\X64\DEBUG\VC141.IDB
C:\USERS\PIMWU\DOCUMENTS\GITHUB\BEAGLESITUATION\BMS_TRACKER\EVALUATION2\X64\DEBUG\DATAASS.OBJ
C:\USERS\PIMWU\DOCUMENTS\GITHUB\BEAGLESITUATION\BMS_TRACKER\EVALUATION2\X64\DEBUG\DETECTION.OBJ
C:\USERS\PIMWU\DOCUMENTS\GITHUB\BEAGLESITUATION\BMS_TRACKER\EVALUATION2\X64\DEBUG\KALMAN.OBJ
C:\USERS\PIMWU\DOCUMENTS\GITHUB\BEAGLESITUATION\BMS_TRACKER\EVALUATION2\X64\DEBUG\TRACK.OBJ
^C:\USERS\PIMWU\DOCUMENTS\GITHUB\BEAGLESITUATION\BMS_TRACKER\EVALUATION2\DATAASS.CPP|C:\USERS\PIMWU\DOCUMENTS\GITHUB\BEAGLESITUATION\BMS_TRACKER\EVALUATION2\TRACK.CPP
C:\USERS\PIMWU\DOCUMENTS\GITHUB\BEAGLESITUATION\BMS_TRACKER\EVALUATION2\X64\DEBUG\VC141.PDB
C:\USERS\PIMWU\DOCUMENTS\GITHUB\BEAGLESITUATION\BMS_TRACKER\EVALUATION2\X64\DEBUG\VC141.IDB
C:\USERS\PIMWU\DOCUMENTS\GITHUB\BEAGLESITUATION\BMS_TRACKER\EVALUATION2\X64\DEBUG\TRACK.OBJ
C:\USERS\PIMWU\DOCUMENTS\GITHUB\BEAGLESITUATION\BMS_TRACKER\EVALUATION2\X64\DEBUG\DATAASS.OBJ
^C:\USERS\PIMWU\DOCUMENTS\GITHUB\BEAGLESITUATION\BMS_TRACKER\EVALUATION2\DATAASS.CPP|C:\USERS\PIMWU\DOCUMENTS\GITHUB\BEAGLESITUATION\BMS_TRACKER\EVALUATION2\EKF.CPP|C:\USERS\PIMWU\DOCUMENTS\GITHUB\BEAGLESITUATION\BMS_TRACKER\EVALUATION2\KALMAN.CPP|C:\USERS\PIMWU\DOCUMENTS\GITHUB\BEAGLESITUATION\BMS_TRACKER\EVALUATION2\TRACK.CPP
C:\USERS\PIMWU\DOCUMENTS\GITHUB\BEAGLESITUATION\BMS_TRACKER\EVALUATION2\X64\DEBUG\VC141.PDB
C:\USERS\PIMWU\DOCUMENTS\GITHUB\BEAGLESITUATION\BMS_TRACKER\EVALUATION2\X64\DEBUG\VC141.IDB
C:\USERS\PIMWU\DOCUMENTS\GITHUB\BEAGLESITUATION\BMS_TRACKER\EVALUATION2\X64\DEBUG\DATAASS.OBJ
C:\USERS\PIMWU\DOCUMENTS\GITHUB\BEAGLESITUATION\BMS_TRACKER\EVALUATION2\X64\DEBUG\EKF.OBJ
C:\USERS\PIMWU\DOCUMENTS\GITHUB\BEAGLESITUATION\BMS_TRACKER\EVALUATION2\X64\DEBUG\KALMAN.OBJ
C:\USERS\PIMWU\DOCUMENTS\GITHUB\BEAGLESITUATION\BMS_TRACKER\EVALUATION2\X64\DEBUG\TRACK.OBJ
^C:\USERS\PIMWU\DOCUMENTS\GITHUB\BEAGLESITUATION\BMS_TRACKER\EVALUATION2\DATAASS.CPP|C:\USERS\PIMWU\DOCUMENTS\GITHUB\BEAGLESITUATION\BMS_TRACKER\EVALUATION2\DETECTION.CPP|C:\USERS\PIMWU\DOCUMENTS\GITHUB\BEAGLESITUATION\BMS_TRACKER\EVALUATION2\TRACK.CPP
C:\USERS\PIMWU\DOCUMENTS\GITHUB\BEAGLESITUATION\BMS_TRACKER\EVALUATION2\X64\DEBUG\VC141.PDB
C:\USERS\PIMWU\DOCUMENTS\GITHUB\BEAGLESITUATION\BMS_TRACKER\EVALUATION2\X64\DEBUG\VC141.IDB
C:\USERS\PIMWU\DOCUMENTS\GITHUB\BEAGLESITUATION\BMS_TRACKER\EVALUATION2\X64\DEBUG\DATAASS.OBJ
C:\USERS\PIMWU\DOCUMENTS\GITHUB\BEAGLESITUATION\BMS_TRACKER\EVALUATION2\X64\DEBUG\DETECTION.OBJ
C:\USERS\PIMWU\DOCUMENTS\GITHUB\BEAGLESITUATION\BMS_TRACKER\EVALUATION2\X64\DEBUG\TRACK.OBJ
^C:\USERS\PIMWU\DOCUMENTS\GITHUB\BEAGLESITUATION\BMS_TRACKER\EVALUATION2\EKF.CPP|C:\USERS\PIMWU\DOCUMENTS\GITHUB\BEAGLESITUATION\BMS_TRACKER\EVALUATION2\TRACK.CPP
C:\USERS\PIMWU\DOCUMENTS\GITHUB\BEAGLESITUATION\BMS_TRACKER\EVALUATION2\X64\DEBUG\VC141.PDB
C:\USERS\PIMWU\DOCUMENTS\GITHUB\BEAGLESITUATION\BMS_TRACKER\EVALUATION2\X64\DEBUG\VC141.IDB
C:\USERS\PIMWU\DOCUMENTS\GITHUB\BEAGLESITUATION\BMS_TRACKER\EVALUATION2\X64\DEBUG\EKF.OBJ
C:\USERS\PIMWU\DOCUMENTS\GITHUB\BEAGLESITUATION\BMS_TRACKER\EVALUATION2\X64\DEBUG\TRACK.OBJ
^C:\USERS\PIMWU\DOCUMENTS\GITHUB\BEAGLESITUATION\BMS_TRACKER\EVALUATION2\DATAASS.CPP|C:\USERS\PIMWU\DOCUMENTS\GITHUB\BEAGLESITUATION\BMS_TRACKER\EVALUATION2\EKF.CPP|C:\USERS\PIMWU\DOCUMENTS\GITHUB\BEAGLESITUATION\BMS_TRACKER\EVALUATION2\TRACK.CPP
C:\USERS\PIMWU\DOCUMENTS\GITHUB\BEAGLESITUATION\BMS_TRACKER\EVALUATION2\X64\DEBUG\VC141.PDB
C:\USERS\PIMWU\DOCUMENTS\GITHUB\BEAGLESITUATION\BMS_TRACKER\EVALUATION2\X64\DEBUG\VC141.IDB
C:\USERS\PIMWU\DOCUMENTS\GITHUB\BEAGLESITUATION\BMS_TRACKER\EVALUATION2\X64\DEBUG\DATAASS.OBJ
C:\USERS\PIMWU\DOCUMENTS\GITHUB\BEAGLESITUATION\BMS_TRACKER\EVALUATION2\X64\DEBUG\EKF.OBJ
C:\USERS\PIMWU\DOCUMENTS\GITHUB\BEAGLESITUATION\BMS_TRACKER\EVALUATION2\X64\DEBUG\TRACK.OBJ
