^C:\USERS\PIMWU\DOCUMENTS\GITHUB\BEAGLESITUATION\GPU-MOG\CONSOLEAPPLICATION5\X64\RELEASE\LBP.OBJ|C:\USERS\PIMWU\DOCUMENTS\GITHUB\BEAGLESITUATION\GPU-MOG\CONSOLEAPPLICATION5\X64\RELEASE\PCH.OBJ|C:\USERS\PIMWU\DOCUMENTS\GITHUB\BEAGLESITUATION\GPU-MOG\CONSOLEAPPLICATION5\X64\RELEASE\RADARDET.OBJ|C:\USERS\PIMWU\DOCUMENTS\GITHUB\BEAGLESITUATION\GPU-MOG\CONSOLEAPPLICATION5\X64\RELEASE\SOURCE.OBJ
C:\USERS\PIMWU\DOCUMENTS\GITHUB\BEAGLESITUATION\GPU-MOG\X64\RELEASE\CONSOLEAPPLICATION5.EXE
C:\USERS\PIMWU\DOCUMENTS\GITHUB\BEAGLESITUATION\GPU-MOG\X64\RELEASE\CONSOLEAPPLICATION5.PDB
