^C:\USERS\PIMWU\DOCUMENTS\GITHUB\BEAGLESITUATION\BMS_TRACKER\EVALUATION2\BMS.CPP|C:\USERS\PIMWU\DOCUMENTS\GITHUB\BEAGLESITUATION\BMS_TRACKER\EVALUATION2\EVALUATION.CPP|C:\USERS\PIMWU\DOCUMENTS\GITHUB\BEAGLESITUATION\BMS_TRACKER\EVALUATION2\GROUNDTRUTH.CPP|C:\USERS\PIMWU\DOCUMENTS\GITHUB\BEAGLESITUATION\BMS_TRACKER\EVALUATION2\LBP.CPP|C:\USERS\PIMWU\DOCUMENTS\GITHUB\BEAGLESITUATION\BMS_TRACKER\EVALUATION2\RADARSCREENDETECT.CPP|C:\USERS\PIMWU\DOCUMENTS\GITHUB\BEAGLESITUATION\BMS_TRACKER\EVALUATION2\SALIENCYDETECT.CPP|C:\USERS\PIMWU\DOCUMENTS\GITHUB\BEAGLESITUATION\BMS_TRACKER\EVALUATION2\TRIM.CPP
C:\USERS\PIMWU\DOCUMENTS\GITHUB\BEAGLESITUATION\BMS_TRACKER\EVALUATION2\X64\RELEASE\VC141.PDB
C:\USERS\PIMWU\DOCUMENTS\GITHUB\BEAGLESITUATION\BMS_TRACKER\EVALUATION2\X64\RELEASE\TRIM.OBJ
C:\USERS\PIMWU\DOCUMENTS\GITHUB\BEAGLESITUATION\BMS_TRACKER\EVALUATION2\X64\RELEASE\RADARSCREENDETECT.OBJ
C:\USERS\PIMWU\DOCUMENTS\GITHUB\BEAGLESITUATION\BMS_TRACKER\EVALUATION2\X64\RELEASE\LBP.OBJ
C:\USERS\PIMWU\DOCUMENTS\GITHUB\BEAGLESITUATION\BMS_TRACKER\EVALUATION2\X64\RELEASE\GROUNDTRUTH.OBJ
C:\USERS\PIMWU\DOCUMENTS\GITHUB\BEAGLESITUATION\BMS_TRACKER\EVALUATION2\X64\RELEASE\EVALUATION.OBJ
C:\USERS\PIMWU\DOCUMENTS\GITHUB\BEAGLESITUATION\BMS_TRACKER\EVALUATION2\X64\RELEASE\BMS.OBJ
^C:\USERS\PIMWU\DOCUMENTS\GITHUB\BEAGLESITUATION\BMS_TRACKER\EVALUATION2\LBP.CPP
C:\USERS\PIMWU\DOCUMENTS\GITHUB\BEAGLESITUATION\BMS_TRACKER\EVALUATION2\X64\RELEASE\LBP.OBJ
^C:\USERS\PIMWU\DOCUMENTS\GITHUB\BEAGLESITUATION\BMS_TRACKER\EVALUATION2\TRIM.CPP
C:\USERS\PIMWU\DOCUMENTS\GITHUB\BEAGLESITUATION\BMS_TRACKER\EVALUATION2\X64\RELEASE\TRIM.OBJ
^C:\USERS\PIMWU\DOCUMENTS\GITHUB\BEAGLESITUATION\BMS_TRACKER\EVALUATION2\EVALUATION.CPP|C:\USERS\PIMWU\DOCUMENTS\GITHUB\BEAGLESITUATION\BMS_TRACKER\EVALUATION2\GROUNDTRUTH.CPP|C:\USERS\PIMWU\DOCUMENTS\GITHUB\BEAGLESITUATION\BMS_TRACKER\EVALUATION2\SALIENCYDETECT.CPP
C:\USERS\PIMWU\DOCUMENTS\GITHUB\BEAGLESITUATION\BMS_TRACKER\EVALUATION2\X64\RELEASE\VC141.PDB
C:\USERS\PIMWU\DOCUMENTS\GITHUB\BEAGLESITUATION\BMS_TRACKER\EVALUATION2\X64\RELEASE\SALIENCYDETECT.OBJ
C:\USERS\PIMWU\DOCUMENTS\GITHUB\BEAGLESITUATION\BMS_TRACKER\EVALUATION2\X64\RELEASE\GROUNDTRUTH.OBJ
C:\USERS\PIMWU\DOCUMENTS\GITHUB\BEAGLESITUATION\BMS_TRACKER\EVALUATION2\X64\RELEASE\EVALUATION.OBJ
^C:\USERS\PIMWU\DOCUMENTS\GITHUB\BEAGLESITUATION\BMS_TRACKER\EVALUATION2\EVALUATION.CPP|C:\USERS\PIMWU\DOCUMENTS\GITHUB\BEAGLESITUATION\BMS_TRACKER\EVALUATION2\GROUNDTRUTH.CPP|C:\USERS\PIMWU\DOCUMENTS\GITHUB\BEAGLESITUATION\BMS_TRACKER\EVALUATION2\RADARSCREENDETECT.CPP|C:\USERS\PIMWU\DOCUMENTS\GITHUB\BEAGLESITUATION\BMS_TRACKER\EVALUATION2\SALIENCYDETECT.CPP
C:\USERS\PIMWU\DOCUMENTS\GITHUB\BEAGLESITUATION\BMS_TRACKER\EVALUATION2\X64\RELEASE\VC141.PDB
C:\USERS\PIMWU\DOCUMENTS\GITHUB\BEAGLESITUATION\BMS_TRACKER\EVALUATION2\X64\RELEASE\SALIENCYDETECT.OBJ
C:\USERS\PIMWU\DOCUMENTS\GITHUB\BEAGLESITUATION\BMS_TRACKER\EVALUATION2\X64\RELEASE\RADARSCREENDETECT.OBJ
C:\USERS\PIMWU\DOCUMENTS\GITHUB\BEAGLESITUATION\BMS_TRACKER\EVALUATION2\X64\RELEASE\GROUNDTRUTH.OBJ
C:\USERS\PIMWU\DOCUMENTS\GITHUB\BEAGLESITUATION\BMS_TRACKER\EVALUATION2\X64\RELEASE\EVALUATION.OBJ
^C:\USERS\PIMWU\DOCUMENTS\GITHUB\BEAGLESITUATION\BMS_TRACKER\EVALUATION2\GROUNDTRUTH.CPP
C:\USERS\PIMWU\DOCUMENTS\GITHUB\BEAGLESITUATION\BMS_TRACKER\EVALUATION2\X64\RELEASE\VC141.PDB
^C:\USERS\PIMWU\DOCUMENTS\GITHUB\BEAGLESITUATION\BMS_TRACKER\EVALUATION2\RADARSCREENDETECT.CPP
C:\USERS\PIMWU\DOCUMENTS\GITHUB\BEAGLESITUATION\BMS_TRACKER\EVALUATION2\X64\RELEASE\VC141.PDB
^C:\USERS\PIMWU\DOCUMENTS\GITHUB\BEAGLESITUATION\BMS_TRACKER\EVALUATION2\SALIENCYDETECT.CPP
C:\USERS\PIMWU\DOCUMENTS\GITHUB\BEAGLESITUATION\BMS_TRACKER\EVALUATION2\X64\RELEASE\VC141.PDB
^C:\USERS\PIMWU\DOCUMENTS\GITHUB\BEAGLESITUATION\BMS_TRACKER\EVALUATION2\DETECTION.CPP|C:\USERS\PIMWU\DOCUMENTS\GITHUB\BEAGLESITUATION\BMS_TRACKER\EVALUATION2\EVALUATION.CPP
C:\USERS\PIMWU\DOCUMENTS\GITHUB\BEAGLESITUATION\BMS_TRACKER\EVALUATION2\X64\RELEASE\VC141.PDB
C:\USERS\PIMWU\DOCUMENTS\GITHUB\BEAGLESITUATION\BMS_TRACKER\EVALUATION2\X64\RELEASE\EVALUATION.OBJ
^C:\USERS\PIMWU\DOCUMENTS\GITHUB\BEAGLESITUATION\BMS_TRACKER\EVALUATION2\BMS.CPP|C:\USERS\PIMWU\DOCUMENTS\GITHUB\BEAGLESITUATION\BMS_TRACKER\EVALUATION2\DETECTION.CPP|C:\USERS\PIMWU\DOCUMENTS\GITHUB\BEAGLESITUATION\BMS_TRACKER\EVALUATION2\EVALUATION.CPP
C:\USERS\PIMWU\DOCUMENTS\GITHUB\BEAGLESITUATION\BMS_TRACKER\EVALUATION2\X64\RELEASE\VC141.PDB
C:\USERS\PIMWU\DOCUMENTS\GITHUB\BEAGLESITUATION\BMS_TRACKER\EVALUATION2\X64\RELEASE\EVALUATION.OBJ
C:\USERS\PIMWU\DOCUMENTS\GITHUB\BEAGLESITUATION\BMS_TRACKER\EVALUATION2\X64\RELEASE\DETECTION.OBJ
C:\USERS\PIMWU\DOCUMENTS\GITHUB\BEAGLESITUATION\BMS_TRACKER\EVALUATION2\X64\RELEASE\BMS.OBJ
^C:\USERS\PIMWU\DOCUMENTS\GITHUB\BEAGLESITUATION\BMS_TRACKER\EVALUATION2\EVALUATION.CPP
C:\USERS\PIMWU\DOCUMENTS\GITHUB\BEAGLESITUATION\BMS_TRACKER\EVALUATION2\X64\RELEASE\VC141.PDB
^C:\USERS\PIMWU\DOCUMENTS\GITHUB\BEAGLESITUATION\BMS_TRACKER\EVALUATION2\DETECTION.CPP|C:\USERS\PIMWU\DOCUMENTS\GITHUB\BEAGLESITUATION\BMS_TRACKER\EVALUATION2\MAIN.CPP
C:\USERS\PIMWU\DOCUMENTS\GITHUB\BEAGLESITUATION\BMS_TRACKER\EVALUATION2\X64\RELEASE\VC141.PDB
C:\USERS\PIMWU\DOCUMENTS\GITHUB\BEAGLESITUATION\BMS_TRACKER\EVALUATION2\X64\RELEASE\MAIN.OBJ
C:\USERS\PIMWU\DOCUMENTS\GITHUB\BEAGLESITUATION\BMS_TRACKER\EVALUATION2\X64\RELEASE\DETECTION.OBJ
^C:\USERS\PIMWU\DOCUMENTS\GITHUB\BEAGLESITUATION\BMS_TRACKER\EVALUATION2\BMS.CPP|C:\USERS\PIMWU\DOCUMENTS\GITHUB\BEAGLESITUATION\BMS_TRACKER\EVALUATION2\DETECTION.CPP
C:\USERS\PIMWU\DOCUMENTS\GITHUB\BEAGLESITUATION\BMS_TRACKER\EVALUATION2\X64\RELEASE\VC141.PDB
C:\USERS\PIMWU\DOCUMENTS\GITHUB\BEAGLESITUATION\BMS_TRACKER\EVALUATION2\X64\RELEASE\DETECTION.OBJ
C:\USERS\PIMWU\DOCUMENTS\GITHUB\BEAGLESITUATION\BMS_TRACKER\EVALUATION2\X64\RELEASE\BMS.OBJ
^C:\USERS\PIMWU\DOCUMENTS\GITHUB\BEAGLESITUATION\BMS_TRACKER\EVALUATION2\STDAFX.CPP
C:\USERS\PIMWU\DOCUMENTS\GITHUB\BEAGLESITUATION\BMS_TRACKER\EVALUATION2\X64\RELEASE\EVALUATION.PCH
C:\USERS\PIMWU\DOCUMENTS\GITHUB\BEAGLESITUATION\BMS_TRACKER\EVALUATION2\X64\RELEASE\VC141.PDB
C:\USERS\PIMWU\DOCUMENTS\GITHUB\BEAGLESITUATION\BMS_TRACKER\EVALUATION2\X64\RELEASE\STDAFX.OBJ
^C:\USERS\PIMWU\DOCUMENTS\GITHUB\BEAGLESITUATION\BMS_TRACKER\EVALUATION2\DETECTION.CPP|C:\USERS\PIMWU\DOCUMENTS\GITHUB\BEAGLESITUATION\BMS_TRACKER\EVALUATION2\TRACK.CPP
C:\USERS\PIMWU\DOCUMENTS\GITHUB\BEAGLESITUATION\BMS_TRACKER\EVALUATION2\X64\RELEASE\VC141.PDB
C:\USERS\PIMWU\DOCUMENTS\GITHUB\BEAGLESITUATION\BMS_TRACKER\EVALUATION2\X64\RELEASE\TRACK.OBJ
C:\USERS\PIMWU\DOCUMENTS\GITHUB\BEAGLESITUATION\BMS_TRACKER\EVALUATION2\X64\RELEASE\DETECTION.OBJ
^C:\USERS\PIMWU\DOCUMENTS\GITHUB\BEAGLESITUATION\BMS_TRACKER\EVALUATION2\DATAASS.CPP|C:\USERS\PIMWU\DOCUMENTS\GITHUB\BEAGLESITUATION\BMS_TRACKER\EVALUATION2\KALMAN.CPP|C:\USERS\PIMWU\DOCUMENTS\GITHUB\BEAGLESITUATION\BMS_TRACKER\EVALUATION2\TRACK.CPP
C:\USERS\PIMWU\DOCUMENTS\GITHUB\BEAGLESITUATION\BMS_TRACKER\EVALUATION2\X64\RELEASE\VC141.PDB
C:\USERS\PIMWU\DOCUMENTS\GITHUB\BEAGLESITUATION\BMS_TRACKER\EVALUATION2\X64\RELEASE\TRACK.OBJ
C:\USERS\PIMWU\DOCUMENTS\GITHUB\BEAGLESITUATION\BMS_TRACKER\EVALUATION2\X64\RELEASE\KALMAN.OBJ
C:\USERS\PIMWU\DOCUMENTS\GITHUB\BEAGLESITUATION\BMS_TRACKER\EVALUATION2\X64\RELEASE\DATAASS.OBJ
^C:\USERS\PIMWU\DOCUMENTS\GITHUB\BEAGLESITUATION\BMS_TRACKER\EVALUATION2\DATAASS.CPP|C:\USERS\PIMWU\DOCUMENTS\GITHUB\BEAGLESITUATION\BMS_TRACKER\EVALUATION2\DETECTION.CPP|C:\USERS\PIMWU\DOCUMENTS\GITHUB\BEAGLESITUATION\BMS_TRACKER\EVALUATION2\KALMAN.CPP|C:\USERS\PIMWU\DOCUMENTS\GITHUB\BEAGLESITUATION\BMS_TRACKER\EVALUATION2\TRACK.CPP
C:\USERS\PIMWU\DOCUMENTS\GITHUB\BEAGLESITUATION\BMS_TRACKER\EVALUATION2\X64\RELEASE\VC141.PDB
C:\USERS\PIMWU\DOCUMENTS\GITHUB\BEAGLESITUATION\BMS_TRACKER\EVALUATION2\X64\RELEASE\TRACK.OBJ
C:\USERS\PIMWU\DOCUMENTS\GITHUB\BEAGLESITUATION\BMS_TRACKER\EVALUATION2\X64\RELEASE\KALMAN.OBJ
C:\USERS\PIMWU\DOCUMENTS\GITHUB\BEAGLESITUATION\BMS_TRACKER\EVALUATION2\X64\RELEASE\DETECTION.OBJ
C:\USERS\PIMWU\DOCUMENTS\GITHUB\BEAGLESITUATION\BMS_TRACKER\EVALUATION2\X64\RELEASE\DATAASS.OBJ
^C:\USERS\PIMWU\DOCUMENTS\GITHUB\BEAGLESITUATION\BMS_TRACKER\EVALUATION2\EKF.CPP|C:\USERS\PIMWU\DOCUMENTS\GITHUB\BEAGLESITUATION\BMS_TRACKER\EVALUATION2\KALMAN.CPP|C:\USERS\PIMWU\DOCUMENTS\GITHUB\BEAGLESITUATION\BMS_TRACKER\EVALUATION2\TRACK.CPP
C:\USERS\PIMWU\DOCUMENTS\GITHUB\BEAGLESITUATION\BMS_TRACKER\EVALUATION2\X64\RELEASE\VC141.PDB
C:\USERS\PIMWU\DOCUMENTS\GITHUB\BEAGLESITUATION\BMS_TRACKER\EVALUATION2\X64\RELEASE\TRACK.OBJ
C:\USERS\PIMWU\DOCUMENTS\GITHUB\BEAGLESITUATION\BMS_TRACKER\EVALUATION2\X64\RELEASE\KALMAN.OBJ
C:\USERS\PIMWU\DOCUMENTS\GITHUB\BEAGLESITUATION\BMS_TRACKER\EVALUATION2\X64\RELEASE\EKF.OBJ
^C:\USERS\PIMWU\DOCUMENTS\GITHUB\BEAGLESITUATION\BMS_TRACKER\EVALUATION2\DATAASS.CPP|C:\USERS\PIMWU\DOCUMENTS\GITHUB\BEAGLESITUATION\BMS_TRACKER\EVALUATION2\DETECTION.CPP
C:\USERS\PIMWU\DOCUMENTS\GITHUB\BEAGLESITUATION\BMS_TRACKER\EVALUATION2\X64\RELEASE\VC141.PDB
C:\USERS\PIMWU\DOCUMENTS\GITHUB\BEAGLESITUATION\BMS_TRACKER\EVALUATION2\X64\RELEASE\DETECTION.OBJ
C:\USERS\PIMWU\DOCUMENTS\GITHUB\BEAGLESITUATION\BMS_TRACKER\EVALUATION2\X64\RELEASE\DATAASS.OBJ
^C:\USERS\PIMWU\DOCUMENTS\GITHUB\BEAGLESITUATION\BMS_TRACKER\EVALUATION2\DATAASS.CPP|C:\USERS\PIMWU\DOCUMENTS\GITHUB\BEAGLESITUATION\BMS_TRACKER\EVALUATION2\MAIN.CPP
C:\USERS\PIMWU\DOCUMENTS\GITHUB\BEAGLESITUATION\BMS_TRACKER\EVALUATION2\X64\RELEASE\VC141.PDB
C:\USERS\PIMWU\DOCUMENTS\GITHUB\BEAGLESITUATION\BMS_TRACKER\EVALUATION2\X64\RELEASE\MAIN.OBJ
C:\USERS\PIMWU\DOCUMENTS\GITHUB\BEAGLESITUATION\BMS_TRACKER\EVALUATION2\X64\RELEASE\DATAASS.OBJ
^C:\USERS\PIMWU\DOCUMENTS\GITHUB\BEAGLESITUATION\BMS_TRACKER\EVALUATION2\BMS.CPP|C:\USERS\PIMWU\DOCUMENTS\GITHUB\BEAGLESITUATION\BMS_TRACKER\EVALUATION2\DATAASS.CPP|C:\USERS\PIMWU\DOCUMENTS\GITHUB\BEAGLESITUATION\BMS_TRACKER\EVALUATION2\DETECTION.CPP|C:\USERS\PIMWU\DOCUMENTS\GITHUB\BEAGLESITUATION\BMS_TRACKER\EVALUATION2\EKF.CPP|C:\USERS\PIMWU\DOCUMENTS\GITHUB\BEAGLESITUATION\BMS_TRACKER\EVALUATION2\KALMAN.CPP|C:\USERS\PIMWU\DOCUMENTS\GITHUB\BEAGLESITUATION\BMS_TRACKER\EVALUATION2\MAIN.CPP|C:\USERS\PIMWU\DOCUMENTS\GITHUB\BEAGLESITUATION\BMS_TRACKER\EVALUATION2\TRACK.CPP
C:\USERS\PIMWU\DOCUMENTS\GITHUB\BEAGLESITUATION\BMS_TRACKER\EVALUATION2\X64\RELEASE\VC141.PDB
C:\USERS\PIMWU\DOCUMENTS\GITHUB\BEAGLESITUATION\BMS_TRACKER\EVALUATION2\X64\RELEASE\TRACK.OBJ
C:\USERS\PIMWU\DOCUMENTS\GITHUB\BEAGLESITUATION\BMS_TRACKER\EVALUATION2\X64\RELEASE\MAIN.OBJ
C:\USERS\PIMWU\DOCUMENTS\GITHUB\BEAGLESITUATION\BMS_TRACKER\EVALUATION2\X64\RELEASE\KALMAN.OBJ
C:\USERS\PIMWU\DOCUMENTS\GITHUB\BEAGLESITUATION\BMS_TRACKER\EVALUATION2\X64\RELEASE\EKF.OBJ
C:\USERS\PIMWU\DOCUMENTS\GITHUB\BEAGLESITUATION\BMS_TRACKER\EVALUATION2\X64\RELEASE\DETECTION.OBJ
C:\USERS\PIMWU\DOCUMENTS\GITHUB\BEAGLESITUATION\BMS_TRACKER\EVALUATION2\X64\RELEASE\DATAASS.OBJ
C:\USERS\PIMWU\DOCUMENTS\GITHUB\BEAGLESITUATION\BMS_TRACKER\EVALUATION2\X64\RELEASE\BMS.OBJ
^C:\USERS\PIMWU\DOCUMENTS\GITHUB\BEAGLESITUATION\BMS_TRACKER\EVALUATION2\BMS.CPP
C:\USERS\PIMWU\DOCUMENTS\GITHUB\BEAGLESITUATION\BMS_TRACKER\EVALUATION2\X64\RELEASE\VC141.PDB
^C:\USERS\PIMWU\DOCUMENTS\GITHUB\BEAGLESITUATION\BMS_TRACKER\EVALUATION2\DATAASS.CPP|C:\USERS\PIMWU\DOCUMENTS\GITHUB\BEAGLESITUATION\BMS_TRACKER\EVALUATION2\EKF.CPP|C:\USERS\PIMWU\DOCUMENTS\GITHUB\BEAGLESITUATION\BMS_TRACKER\EVALUATION2\TRACK.CPP
C:\USERS\PIMWU\DOCUMENTS\GITHUB\BEAGLESITUATION\BMS_TRACKER\EVALUATION2\X64\RELEASE\VC141.PDB
C:\USERS\PIMWU\DOCUMENTS\GITHUB\BEAGLESITUATION\BMS_TRACKER\EVALUATION2\X64\RELEASE\TRACK.OBJ
C:\USERS\PIMWU\DOCUMENTS\GITHUB\BEAGLESITUATION\BMS_TRACKER\EVALUATION2\X64\RELEASE\EKF.OBJ
C:\USERS\PIMWU\DOCUMENTS\GITHUB\BEAGLESITUATION\BMS_TRACKER\EVALUATION2\X64\RELEASE\DATAASS.OBJ
^C:\USERS\PIMWU\DOCUMENTS\GITHUB\BEAGLESITUATION\BMS_TRACKER\EVALUATION2\DATAASS.CPP|C:\USERS\PIMWU\DOCUMENTS\GITHUB\BEAGLESITUATION\BMS_TRACKER\EVALUATION2\TRACK.CPP
C:\USERS\PIMWU\DOCUMENTS\GITHUB\BEAGLESITUATION\BMS_TRACKER\EVALUATION2\X64\RELEASE\VC141.PDB
C:\USERS\PIMWU\DOCUMENTS\GITHUB\BEAGLESITUATION\BMS_TRACKER\EVALUATION2\X64\RELEASE\TRACK.OBJ
C:\USERS\PIMWU\DOCUMENTS\GITHUB\BEAGLESITUATION\BMS_TRACKER\EVALUATION2\X64\RELEASE\DATAASS.OBJ
^C:\USERS\PIMWU\DOCUMENTS\GITHUB\BEAGLESITUATION\BMS_TRACKER\EVALUATION2\DATAASS.CPP|C:\USERS\PIMWU\DOCUMENTS\GITHUB\BEAGLESITUATION\BMS_TRACKER\EVALUATION2\KALMAN.CPP
C:\USERS\PIMWU\DOCUMENTS\GITHUB\BEAGLESITUATION\BMS_TRACKER\EVALUATION2\X64\RELEASE\VC141.PDB
C:\USERS\PIMWU\DOCUMENTS\GITHUB\BEAGLESITUATION\BMS_TRACKER\EVALUATION2\X64\RELEASE\KALMAN.OBJ
C:\USERS\PIMWU\DOCUMENTS\GITHUB\BEAGLESITUATION\BMS_TRACKER\EVALUATION2\X64\RELEASE\DATAASS.OBJ
^C:\USERS\PIMWU\DOCUMENTS\GITHUB\BEAGLESITUATION\BMS_TRACKER\EVALUATION2\KALMAN.CPP|C:\USERS\PIMWU\DOCUMENTS\GITHUB\BEAGLESITUATION\BMS_TRACKER\EVALUATION2\TRACK.CPP
C:\USERS\PIMWU\DOCUMENTS\GITHUB\BEAGLESITUATION\BMS_TRACKER\EVALUATION2\X64\RELEASE\VC141.PDB
C:\USERS\PIMWU\DOCUMENTS\GITHUB\BEAGLESITUATION\BMS_TRACKER\EVALUATION2\X64\RELEASE\TRACK.OBJ
C:\USERS\PIMWU\DOCUMENTS\GITHUB\BEAGLESITUATION\BMS_TRACKER\EVALUATION2\X64\RELEASE\KALMAN.OBJ
^C:\USERS\PIMWU\DOCUMENTS\GITHUB\BEAGLESITUATION\BMS_TRACKER\EVALUATION2\DATAASS.CPP|C:\USERS\PIMWU\DOCUMENTS\GITHUB\BEAGLESITUATION\BMS_TRACKER\EVALUATION2\DETECTION.CPP|C:\USERS\PIMWU\DOCUMENTS\GITHUB\BEAGLESITUATION\BMS_TRACKER\EVALUATION2\EKF.CPP|C:\USERS\PIMWU\DOCUMENTS\GITHUB\BEAGLESITUATION\BMS_TRACKER\EVALUATION2\KALMAN.CPP|C:\USERS\PIMWU\DOCUMENTS\GITHUB\BEAGLESITUATION\BMS_TRACKER\EVALUATION2\MAIN.CPP|C:\USERS\PIMWU\DOCUMENTS\GITHUB\BEAGLESITUATION\BMS_TRACKER\EVALUATION2\TRACK.CPP
C:\USERS\PIMWU\DOCUMENTS\GITHUB\BEAGLESITUATION\BMS_TRACKER\EVALUATION2\X64\RELEASE\VC141.PDB
C:\USERS\PIMWU\DOCUMENTS\GITHUB\BEAGLESITUATION\BMS_TRACKER\EVALUATION2\X64\RELEASE\TRACK.OBJ
C:\USERS\PIMWU\DOCUMENTS\GITHUB\BEAGLESITUATION\BMS_TRACKER\EVALUATION2\X64\RELEASE\MAIN.OBJ
C:\USERS\PIMWU\DOCUMENTS\GITHUB\BEAGLESITUATION\BMS_TRACKER\EVALUATION2\X64\RELEASE\KALMAN.OBJ
C:\USERS\PIMWU\DOCUMENTS\GITHUB\BEAGLESITUATION\BMS_TRACKER\EVALUATION2\X64\RELEASE\EKF.OBJ
C:\USERS\PIMWU\DOCUMENTS\GITHUB\BEAGLESITUATION\BMS_TRACKER\EVALUATION2\X64\RELEASE\DETECTION.OBJ
C:\USERS\PIMWU\DOCUMENTS\GITHUB\BEAGLESITUATION\BMS_TRACKER\EVALUATION2\X64\RELEASE\DATAASS.OBJ
^C:\USERS\PIMWU\DOCUMENTS\GITHUB\BEAGLESITUATION\BMS_TRACKER\EVALUATION2\DATAASS.CPP
C:\USERS\PIMWU\DOCUMENTS\GITHUB\BEAGLESITUATION\BMS_TRACKER\EVALUATION2\X64\RELEASE\VC141.PDB
^C:\USERS\PIMWU\DOCUMENTS\GITHUB\BEAGLESITUATION\BMS_TRACKER\EVALUATION2\KALMAN.CPP
C:\USERS\PIMWU\DOCUMENTS\GITHUB\BEAGLESITUATION\BMS_TRACKER\EVALUATION2\X64\RELEASE\VC141.PDB
^C:\USERS\PIMWU\DOCUMENTS\GITHUB\BEAGLESITUATION\BMS_TRACKER\EVALUATION2\MAIN.CPP
C:\USERS\PIMWU\DOCUMENTS\GITHUB\BEAGLESITUATION\BMS_TRACKER\EVALUATION2\X64\RELEASE\VC141.PDB
^C:\USERS\PIMWU\DOCUMENTS\GITHUB\BEAGLESITUATION\BMS_TRACKER\EVALUATION2\TRACK.CPP
C:\USERS\PIMWU\DOCUMENTS\GITHUB\BEAGLESITUATION\BMS_TRACKER\EVALUATION2\X64\RELEASE\VC141.PDB
^C:\USERS\PIMWU\DOCUMENTS\GITHUB\BEAGLESITUATION\BMS_TRACKER\EVALUATION2\DETECTION.CPP|C:\USERS\PIMWU\DOCUMENTS\GITHUB\BEAGLESITUATION\BMS_TRACKER\EVALUATION2\EKF.CPP
C:\USERS\PIMWU\DOCUMENTS\GITHUB\BEAGLESITUATION\BMS_TRACKER\EVALUATION2\X64\RELEASE\VC141.PDB
C:\USERS\PIMWU\DOCUMENTS\GITHUB\BEAGLESITUATION\BMS_TRACKER\EVALUATION2\X64\RELEASE\EKF.OBJ
C:\USERS\PIMWU\DOCUMENTS\GITHUB\BEAGLESITUATION\BMS_TRACKER\EVALUATION2\X64\RELEASE\DETECTION.OBJ
^C:\USERS\PIMWU\DOCUMENTS\GITHUB\BEAGLESITUATION\BMS_TRACKER\EVALUATION2\DETECTION.CPP
C:\USERS\PIMWU\DOCUMENTS\GITHUB\BEAGLESITUATION\BMS_TRACKER\EVALUATION2\X64\RELEASE\VC141.PDB
^C:\USERS\PIMWU\DOCUMENTS\GITHUB\BEAGLESITUATION\BMS_TRACKER\EVALUATION2\EKF.CPP
C:\USERS\PIMWU\DOCUMENTS\GITHUB\BEAGLESITUATION\BMS_TRACKER\EVALUATION2\X64\RELEASE\VC141.PDB
