^C:\USERS\PIMWU\SOURCE\REPOS\CONSOLEAPPLICATION13\CONSOLEAPPLICATION13\X64\DEBUG\BMS.OBJ|C:\USERS\PIMWU\SOURCE\REPOS\CONSOLEAPPLICATION13\CONSOLEAPPLICATION13\X64\DEBUG\HISTOGRAM.OBJ|C:\USERS\PIMWU\SOURCE\REPOS\CONSOLEAPPLICATION13\CONSOLEAPPLICATION13\X64\DEBUG\LBP.OBJ|C:\USERS\PIMWU\SOURCE\REPOS\CONSOLEAPPLICATION13\CONSOLEAPPLICATION13\X64\DEBUG\MAIN.OBJ|C:\USERS\PIMWU\SOURCE\REPOS\CONSOLEAPPLICATION13\CONSOLEAPPLICATION13\X64\DEBUG\STDAFX.OBJ
/OUT:"C:\USERS\PIMWU\SOURCE\REPOS\CONSOLEAPPLICATION13\X64\DEBUG\CONSOLEAPPLICATION13.EXE" /INCREMENTAL /NOLOGO /LIBPATH:"C:\USERS\PIMWU\DOCUMENTS\OPENCV-3.4.0\BUILD\INSTALL\X64\VC15\LIB" /LIBPATH:"C:\PROGRAM FILES\NVIDIA GPU COMPUTING TOOLKIT\CUDA\V9.1\LIB\X64" /LIBPATH:C:\USERS\PIMWU\DOWNLOADS\TBB41_20130314OSS_WIN\TBB41_20130314OSS\LIB\INTEL64\VC11_UI /LIBPATH:"C:\USERS\PIMWU\DOWNLOADS\CUDNN-9.1-WINDOWS10-X64-V7.1\CUDA\LIB\X64" OPENCV_WORLD340D.LIB TBB.LIB TBB_DEBUG.LIB CUDNN.LIB KERNEL32.LIB USER32.LIB GDI32.LIB WINSPOOL.LIB COMDLG32.LIB ADVAPI32.LIB SHELL32.LIB OLE32.LIB OLEAUT32.LIB UUID.LIB ODBC32.LIB ODBCCP32.LIB /MANIFEST /MANIFESTUAC:"level='asInvoker' uiAccess='false'" /manifest:embed /DEBUG:FASTLINK /PDB:"C:\USERS\PIMWU\SOURCE\REPOS\CONSOLEAPPLICATION13\X64\DEBUG\CONSOLEAPPLICATION13.PDB" /SUBSYSTEM:CONSOLE /TLBID:1 /DYNAMICBASE /NXCOMPAT /IMPLIB:"C:\USERS\PIMWU\SOURCE\REPOS\CONSOLEAPPLICATION13\X64\DEBUG\CONSOLEAPPLICATION13.LIB" /MACHINE:X64 X64\DEBUG\BMS.OBJX64\DEBUG\HISTOGRAM.OBJX64\DEBUG\LBP.OBJX64\DEBUG\MAIN.OBJX64\DEBUG\STDAFX.OBJ
^C:\USERS\PIMWU\SOURCE\REPOS\GPU-BMS\CONSOLEAPPLICATION13\X64\DEBUG\BMS.OBJ|C:\USERS\PIMWU\SOURCE\REPOS\GPU-BMS\CONSOLEAPPLICATION13\X64\DEBUG\HISTOGRAM.OBJ|C:\USERS\PIMWU\SOURCE\REPOS\GPU-BMS\CONSOLEAPPLICATION13\X64\DEBUG\LBP.OBJ|C:\USERS\PIMWU\SOURCE\REPOS\GPU-BMS\CONSOLEAPPLICATION13\X64\DEBUG\MAIN.OBJ|C:\USERS\PIMWU\SOURCE\REPOS\GPU-BMS\CONSOLEAPPLICATION13\X64\DEBUG\STDAFX.OBJ
/OUT:"C:\USERS\PIMWU\SOURCE\REPOS\GPU-BMS\X64\DEBUG\CONSOLEAPPLICATION13.EXE" /INCREMENTAL /NOLOGO /LIBPATH:"C:\USERS\PIMWU\DOCUMENTS\OPENCV-3.4.0\BUILD\INSTALL\X64\VC15\LIB" /LIBPATH:"C:\PROGRAM FILES\NVIDIA GPU COMPUTING TOOLKIT\CUDA\V9.1\LIB\X64" /LIBPATH:C:\USERS\PIMWU\DOWNLOADS\TBB41_20130314OSS_WIN\TBB41_20130314OSS\LIB\INTEL64\VC11_UI /LIBPATH:"C:\USERS\PIMWU\DOWNLOADS\CUDNN-9.1-WINDOWS10-X64-V7.1\CUDA\LIB\X64" OPENCV_WORLD340D.LIB TBB.LIB TBB_DEBUG.LIB CUDNN.LIB KERNEL32.LIB USER32.LIB GDI32.LIB WINSPOOL.LIB COMDLG32.LIB ADVAPI32.LIB SHELL32.LIB OLE32.LIB OLEAUT32.LIB UUID.LIB ODBC32.LIB ODBCCP32.LIB /MANIFEST /MANIFESTUAC:"level='asInvoker' uiAccess='false'" /manifest:embed /DEBUG:FASTLINK /PDB:"C:\USERS\PIMWU\SOURCE\REPOS\GPU-BMS\X64\DEBUG\CONSOLEAPPLICATION13.PDB" /SUBSYSTEM:CONSOLE /TLBID:1 /DYNAMICBASE /NXCOMPAT /IMPLIB:"C:\USERS\PIMWU\SOURCE\REPOS\GPU-BMS\X64\DEBUG\CONSOLEAPPLICATION13.LIB" /MACHINE:X64 X64\DEBUG\BMS.OBJX64\DEBUG\HISTOGRAM.OBJX64\DEBUG\LBP.OBJX64\DEBUG\MAIN.OBJX64\DEBUG\STDAFX.OBJ
