^C:\USERS\PIMWU\DOCUMENTS\GITHUB\BEAGLESITUATION\EVALUATION2\EVALUATION2\STDAFX.CPP
/c /I"C:\PROGRAM FILES\NVIDIA GPU COMPUTING TOOLKIT\CUDA\V9.1\INCLUDE" /I"C:\USERS\PIMWU\DOCUMENTS\OPENCV-3.4.0\BUILD\INSTALL\INCLUDE" /I"C:\USERS\PIMWU\SOURCE\REPOS\FFTW-3.3.5-DLL64" /ZI /nologo /W1 /WX- /diagnostics:classic /sdl- /Od /D _DEBUG /D _CONSOLE /D _UNICODE /D UNICODE /Gm /EHsc /RTC1 /MDd /GS /fp:precise /Zc:wchar_t /Zc:forScope /Zc:inline /Yc"stdafx.h" /Fp"X64\DEBUG\EVALUATION.PCH" /Fo"X64\DEBUG\\" /Fd"X64\DEBUG\VC141.PDB" /Gd /TP C:\USERS\PIMWU\DOCUMENTS\GITHUB\BEAGLESITUATION\EVALUATION2\EVALUATION2\STDAFX.CPP
^C:\USERS\PIMWU\DOCUMENTS\GITHUB\BEAGLESITUATION\EVALUATION2\EVALUATION2\BMS.CPP
/c /I"C:\PROGRAM FILES\NVIDIA GPU COMPUTING TOOLKIT\CUDA\V9.1\INCLUDE" /I"C:\USERS\PIMWU\DOCUMENTS\OPENCV-3.4.0\BUILD\INSTALL\INCLUDE" /I"C:\USERS\PIMWU\SOURCE\REPOS\FFTW-3.3.5-DLL64" /ZI /nologo /W1 /WX- /diagnostics:classic /sdl- /Od /D _DEBUG /D _CONSOLE /D _UNICODE /D UNICODE /Gm /EHsc /RTC1 /MDd /GS /fp:precise /Zc:wchar_t /Zc:forScope /Zc:inline /Yu"stdafx.h" /Fp"X64\DEBUG\EVALUATION.PCH" /Fo"X64\DEBUG\\" /Fd"X64\DEBUG\VC141.PDB" /Gd /TP C:\USERS\PIMWU\DOCUMENTS\GITHUB\BEAGLESITUATION\EVALUATION2\EVALUATION2\BMS.CPP
^C:\USERS\PIMWU\DOCUMENTS\GITHUB\BEAGLESITUATION\EVALUATION2\EVALUATION2\EVALUATION.CPP
/c /I"C:\PROGRAM FILES\NVIDIA GPU COMPUTING TOOLKIT\CUDA\V9.1\INCLUDE" /I"C:\USERS\PIMWU\DOCUMENTS\OPENCV-3.4.0\BUILD\INSTALL\INCLUDE" /I"C:\USERS\PIMWU\SOURCE\REPOS\FFTW-3.3.5-DLL64" /ZI /nologo /W1 /WX- /diagnostics:classic /sdl- /Od /D _DEBUG /D _CONSOLE /D _UNICODE /D UNICODE /Gm /EHsc /RTC1 /MDd /GS /fp:precise /Zc:wchar_t /Zc:forScope /Zc:inline /Yu"stdafx.h" /Fp"X64\DEBUG\EVALUATION.PCH" /Fo"X64\DEBUG\\" /Fd"X64\DEBUG\VC141.PDB" /Gd /TP C:\USERS\PIMWU\DOCUMENTS\GITHUB\BEAGLESITUATION\EVALUATION2\EVALUATION2\EVALUATION.CPP
^C:\USERS\PIMWU\DOCUMENTS\GITHUB\BEAGLESITUATION\EVALUATION2\EVALUATION2\GROUNDTRUTH.CPP
/c /I"C:\PROGRAM FILES\NVIDIA GPU COMPUTING TOOLKIT\CUDA\V9.1\INCLUDE" /I"C:\USERS\PIMWU\DOCUMENTS\OPENCV-3.4.0\BUILD\INSTALL\INCLUDE" /I"C:\USERS\PIMWU\SOURCE\REPOS\FFTW-3.3.5-DLL64" /ZI /nologo /W1 /WX- /diagnostics:classic /sdl- /Od /D _DEBUG /D _CONSOLE /D _UNICODE /D UNICODE /Gm /EHsc /RTC1 /MDd /GS /fp:precise /Zc:wchar_t /Zc:forScope /Zc:inline /Yu"stdafx.h" /Fp"X64\DEBUG\EVALUATION.PCH" /Fo"X64\DEBUG\\" /Fd"X64\DEBUG\VC141.PDB" /Gd /TP C:\USERS\PIMWU\DOCUMENTS\GITHUB\BEAGLESITUATION\EVALUATION2\EVALUATION2\GROUNDTRUTH.CPP
^C:\USERS\PIMWU\DOCUMENTS\GITHUB\BEAGLESITUATION\EVALUATION2\EVALUATION2\LBP.CPP
/c /I"C:\PROGRAM FILES\NVIDIA GPU COMPUTING TOOLKIT\CUDA\V9.1\INCLUDE" /I"C:\USERS\PIMWU\DOCUMENTS\OPENCV-3.4.0\BUILD\INSTALL\INCLUDE" /I"C:\USERS\PIMWU\SOURCE\REPOS\FFTW-3.3.5-DLL64" /ZI /nologo /W1 /WX- /diagnostics:classic /sdl- /Od /D _DEBUG /D _CONSOLE /D _UNICODE /D UNICODE /Gm /EHsc /RTC1 /MDd /GS /fp:precise /Zc:wchar_t /Zc:forScope /Zc:inline /Yu"stdafx.h" /Fp"X64\DEBUG\EVALUATION.PCH" /Fo"X64\DEBUG\\" /Fd"X64\DEBUG\VC141.PDB" /Gd /TP C:\USERS\PIMWU\DOCUMENTS\GITHUB\BEAGLESITUATION\EVALUATION2\EVALUATION2\LBP.CPP
^C:\USERS\PIMWU\DOCUMENTS\GITHUB\BEAGLESITUATION\EVALUATION2\EVALUATION2\RADARSCREENDETECT.CPP
/c /I"C:\PROGRAM FILES\NVIDIA GPU COMPUTING TOOLKIT\CUDA\V9.1\INCLUDE" /I"C:\USERS\PIMWU\DOCUMENTS\OPENCV-3.4.0\BUILD\INSTALL\INCLUDE" /I"C:\USERS\PIMWU\SOURCE\REPOS\FFTW-3.3.5-DLL64" /ZI /nologo /W1 /WX- /diagnostics:classic /sdl- /Od /D _DEBUG /D _CONSOLE /D _UNICODE /D UNICODE /Gm /EHsc /RTC1 /MDd /GS /fp:precise /Zc:wchar_t /Zc:forScope /Zc:inline /Yu"stdafx.h" /Fp"X64\DEBUG\EVALUATION.PCH" /Fo"X64\DEBUG\\" /Fd"X64\DEBUG\VC141.PDB" /Gd /TP C:\USERS\PIMWU\DOCUMENTS\GITHUB\BEAGLESITUATION\EVALUATION2\EVALUATION2\RADARSCREENDETECT.CPP
^C:\USERS\PIMWU\DOCUMENTS\GITHUB\BEAGLESITUATION\EVALUATION2\EVALUATION2\SALIENCYDETECT.CPP
/c /I"C:\PROGRAM FILES\NVIDIA GPU COMPUTING TOOLKIT\CUDA\V9.1\INCLUDE" /I"C:\USERS\PIMWU\DOCUMENTS\OPENCV-3.4.0\BUILD\INSTALL\INCLUDE" /I"C:\USERS\PIMWU\SOURCE\REPOS\FFTW-3.3.5-DLL64" /ZI /nologo /W1 /WX- /diagnostics:classic /sdl- /Od /D _DEBUG /D _CONSOLE /D _UNICODE /D UNICODE /Gm /EHsc /RTC1 /MDd /GS /fp:precise /Zc:wchar_t /Zc:forScope /Zc:inline /Yu"stdafx.h" /Fp"X64\DEBUG\EVALUATION.PCH" /Fo"X64\DEBUG\\" /Fd"X64\DEBUG\VC141.PDB" /Gd /TP C:\USERS\PIMWU\DOCUMENTS\GITHUB\BEAGLESITUATION\EVALUATION2\EVALUATION2\SALIENCYDETECT.CPP
^C:\USERS\PIMWU\DOCUMENTS\GITHUB\BEAGLESITUATION\EVALUATION2\EVALUATION2\TRIM.CPP
/c /I"C:\PROGRAM FILES\NVIDIA GPU COMPUTING TOOLKIT\CUDA\V9.1\INCLUDE" /I"C:\USERS\PIMWU\DOCUMENTS\OPENCV-3.4.0\BUILD\INSTALL\INCLUDE" /I"C:\USERS\PIMWU\SOURCE\REPOS\FFTW-3.3.5-DLL64" /ZI /nologo /W1 /WX- /diagnostics:classic /sdl- /Od /D _DEBUG /D _CONSOLE /D _UNICODE /D UNICODE /Gm /EHsc /RTC1 /MDd /GS /fp:precise /Zc:wchar_t /Zc:forScope /Zc:inline /Yu"stdafx.h" /Fp"X64\DEBUG\EVALUATION.PCH" /Fo"X64\DEBUG\\" /Fd"X64\DEBUG\VC141.PDB" /Gd /TP C:\USERS\PIMWU\DOCUMENTS\GITHUB\BEAGLESITUATION\EVALUATION2\EVALUATION2\TRIM.CPP
