^C:\USERS\PIMWU\DOCUMENTS\GITHUB\BEAGLESITUATION\EVALUATION2\EVALUATION2\X64\RELEASE\BMS.OBJ|C:\USERS\PIMWU\DOCUMENTS\GITHUB\BEAGLESITUATION\EVALUATION2\EVALUATION2\X64\RELEASE\EVALUATION2.OBJ|C:\USERS\PIMWU\DOCUMENTS\GITHUB\BEAGLESITUATION\EVALUATION2\EVALUATION2\X64\RELEASE\LBP.OBJ|C:\USERS\PIMWU\DOCUMENTS\GITHUB\BEAGLESITUATION\EVALUATION2\EVALUATION2\X64\RELEASE\RADARSCREENDETECT.OBJ|C:\USERS\PIMWU\DOCUMENTS\GITHUB\BEAGLESITUATION\EVALUATION2\EVALUATION2\X64\RELEASE\SALIENCYDETECT.OBJ|C:\USERS\PIMWU\DOCUMENTS\GITHUB\BEAGLESITUATION\EVALUATION2\EVALUATION2\X64\RELEASE\STDAFX.OBJ|C:\USERS\PIMWU\DOCUMENTS\GITHUB\BEAGLESITUATION\EVALUATION2\EVALUATION2\X64\RELEASE\TRIM.OBJ
C:\USERS\PIMWU\DOCUMENTS\GITHUB\BEAGLESITUATION\EVALUATION2\X64\RELEASE\EVALUATION2.EXE
C:\USERS\PIMWU\DOCUMENTS\GITHUB\BEAGLESITUATION\EVALUATION2\X64\RELEASE\EVALUATION2.PDB
