^C:\USERS\PIMWU\SOURCE\REPOS\CONSOLEAPPLICATION13\CONSOLEAPPLICATION13\STDAFX.CPP
/c /I"C:\PROGRAM FILES\NVIDIA GPU COMPUTING TOOLKIT\CUDA\V9.1\INCLUDE" /I"C:\USERS\PIMWU\DOCUMENTS\OPENCV-3.4.0\BUILD\INSTALL\INCLUDE" /Zi /nologo /W3 /WX- /diagnostics:classic /sdl /O2 /Oi /GL /D NDEBUG /D _CONSOLE /D _UNICODE /D UNICODE /Gm- /EHsc /MD /GS /Gy /fp:precise /Zc:wchar_t /Zc:forScope /Zc:inline /Yc"stdafx.h" /Fp"X64\RELEASE\CONSOLEAPPLICATION13.PCH" /Fo"X64\RELEASE\\" /Fd"X64\RELEASE\VC141.PDB" /Gd /TP C:\USERS\PIMWU\SOURCE\REPOS\CONSOLEAPPLICATION13\CONSOLEAPPLICATION13\STDAFX.CPP
^C:\USERS\PIMWU\SOURCE\REPOS\CONSOLEAPPLICATION13\CONSOLEAPPLICATION13\BMS.CPP
/c /I"C:\PROGRAM FILES\NVIDIA GPU COMPUTING TOOLKIT\CUDA\V9.1\INCLUDE" /I"C:\USERS\PIMWU\DOCUMENTS\OPENCV-3.4.0\BUILD\INSTALL\INCLUDE" /Zi /nologo /W3 /WX- /diagnostics:classic /sdl /O2 /Oi /GL /D NDEBUG /D _CONSOLE /D _UNICODE /D UNICODE /Gm- /EHsc /MD /GS /Gy /fp:precise /Zc:wchar_t /Zc:forScope /Zc:inline /Yu"stdafx.h" /Fp"X64\RELEASE\CONSOLEAPPLICATION13.PCH" /Fo"X64\RELEASE\\" /Fd"X64\RELEASE\VC141.PDB" /Gd /TP C:\USERS\PIMWU\SOURCE\REPOS\CONSOLEAPPLICATION13\CONSOLEAPPLICATION13\BMS.CPP
^C:\USERS\PIMWU\SOURCE\REPOS\CONSOLEAPPLICATION13\CONSOLEAPPLICATION13\HISTOGRAM.CPP
/c /I"C:\PROGRAM FILES\NVIDIA GPU COMPUTING TOOLKIT\CUDA\V9.1\INCLUDE" /I"C:\USERS\PIMWU\DOCUMENTS\OPENCV-3.4.0\BUILD\INSTALL\INCLUDE" /Zi /nologo /W3 /WX- /diagnostics:classic /sdl /O2 /Oi /GL /D NDEBUG /D _CONSOLE /D _UNICODE /D UNICODE /Gm- /EHsc /MD /GS /Gy /fp:precise /Zc:wchar_t /Zc:forScope /Zc:inline /Yu"stdafx.h" /Fp"X64\RELEASE\CONSOLEAPPLICATION13.PCH" /Fo"X64\RELEASE\\" /Fd"X64\RELEASE\VC141.PDB" /Gd /TP C:\USERS\PIMWU\SOURCE\REPOS\CONSOLEAPPLICATION13\CONSOLEAPPLICATION13\HISTOGRAM.CPP
^C:\USERS\PIMWU\SOURCE\REPOS\CONSOLEAPPLICATION13\CONSOLEAPPLICATION13\LBP.CPP
/c /I"C:\PROGRAM FILES\NVIDIA GPU COMPUTING TOOLKIT\CUDA\V9.1\INCLUDE" /I"C:\USERS\PIMWU\DOCUMENTS\OPENCV-3.4.0\BUILD\INSTALL\INCLUDE" /Zi /nologo /W3 /WX- /diagnostics:classic /sdl /O2 /Oi /GL /D NDEBUG /D _CONSOLE /D _UNICODE /D UNICODE /Gm- /EHsc /MD /GS /Gy /fp:precise /Zc:wchar_t /Zc:forScope /Zc:inline /Yu"stdafx.h" /Fp"X64\RELEASE\CONSOLEAPPLICATION13.PCH" /Fo"X64\RELEASE\\" /Fd"X64\RELEASE\VC141.PDB" /Gd /TP C:\USERS\PIMWU\SOURCE\REPOS\CONSOLEAPPLICATION13\CONSOLEAPPLICATION13\LBP.CPP
^C:\USERS\PIMWU\SOURCE\REPOS\CONSOLEAPPLICATION13\CONSOLEAPPLICATION13\MAIN.CPP
/c /I"C:\PROGRAM FILES\NVIDIA GPU COMPUTING TOOLKIT\CUDA\V9.1\INCLUDE" /I"C:\USERS\PIMWU\DOCUMENTS\OPENCV-3.4.0\BUILD\INSTALL\INCLUDE" /Zi /nologo /W3 /WX- /diagnostics:classic /sdl /O2 /Oi /GL /D NDEBUG /D _CONSOLE /D _UNICODE /D UNICODE /Gm- /EHsc /MD /GS /Gy /fp:precise /Zc:wchar_t /Zc:forScope /Zc:inline /Yu"stdafx.h" /Fp"X64\RELEASE\CONSOLEAPPLICATION13.PCH" /Fo"X64\RELEASE\\" /Fd"X64\RELEASE\VC141.PDB" /Gd /TP C:\USERS\PIMWU\SOURCE\REPOS\CONSOLEAPPLICATION13\CONSOLEAPPLICATION13\MAIN.CPP
^C:\USERS\PIMWU\SOURCE\REPOS\GPU-BMS\CONSOLEAPPLICATION13\STDAFX.CPP
/c /IC:\USERS\PIMWU\DOWNLOADS\OPENCV\BUILD\INCLUDE /I"C:\PROGRAM FILES\NVIDIA GPU COMPUTING TOOLKIT\CUDA\V9.1\INCLUDE" /I"C:\USERS\PIMWU\SOURCE\REPOS\FFTW-3.3.5-DLL64" /Zi /nologo /W3 /WX- /diagnostics:classic /sdl /O2 /Oi /GL /D NDEBUG /D _CONSOLE /D _UNICODE /D UNICODE /Gm- /EHsc /MD /GS /Gy /fp:precise /Zc:wchar_t /Zc:forScope /Zc:inline /Yc"stdafx.h" /Fp"X64\RELEASE\CONSOLEAPPLICATION13.PCH" /Fo"X64\RELEASE\\" /Fd"X64\RELEASE\VC141.PDB" /Gd /TP C:\USERS\PIMWU\SOURCE\REPOS\GPU-BMS\CONSOLEAPPLICATION13\STDAFX.CPP
^C:\USERS\PIMWU\SOURCE\REPOS\GPU-BMS\CONSOLEAPPLICATION13\HISTOGRAM.CPP
/c /IC:\USERS\PIMWU\DOWNLOADS\OPENCV\BUILD\INCLUDE /I"C:\PROGRAM FILES\NVIDIA GPU COMPUTING TOOLKIT\CUDA\V9.1\INCLUDE" /I"C:\USERS\PIMWU\SOURCE\REPOS\FFTW-3.3.5-DLL64" /Zi /nologo /W3 /WX- /diagnostics:classic /sdl /O2 /Oi /GL /D NDEBUG /D _CONSOLE /D _UNICODE /D UNICODE /Gm- /EHsc /MD /GS /Gy /fp:precise /Zc:wchar_t /Zc:forScope /Zc:inline /Yu"stdafx.h" /Fp"X64\RELEASE\CONSOLEAPPLICATION13.PCH" /Fo"X64\RELEASE\\" /Fd"X64\RELEASE\VC141.PDB" /Gd /TP C:\USERS\PIMWU\SOURCE\REPOS\GPU-BMS\CONSOLEAPPLICATION13\HISTOGRAM.CPP
^C:\USERS\PIMWU\SOURCE\REPOS\GPU-BMS\CONSOLEAPPLICATION13\LBP.CPP
/c /IC:\USERS\PIMWU\DOWNLOADS\OPENCV\BUILD\INCLUDE /I"C:\PROGRAM FILES\NVIDIA GPU COMPUTING TOOLKIT\CUDA\V9.1\INCLUDE" /I"C:\USERS\PIMWU\SOURCE\REPOS\FFTW-3.3.5-DLL64" /Zi /nologo /W3 /WX- /diagnostics:classic /sdl /O2 /Oi /GL /D NDEBUG /D _CONSOLE /D _UNICODE /D UNICODE /Gm- /EHsc /MD /GS /Gy /fp:precise /Zc:wchar_t /Zc:forScope /Zc:inline /Yu"stdafx.h" /Fp"X64\RELEASE\CONSOLEAPPLICATION13.PCH" /Fo"X64\RELEASE\\" /Fd"X64\RELEASE\VC141.PDB" /Gd /TP C:\USERS\PIMWU\SOURCE\REPOS\GPU-BMS\CONSOLEAPPLICATION13\LBP.CPP
^C:\USERS\PIMWU\SOURCE\REPOS\GPU-BMS\CONSOLEAPPLICATION13\MAIN.CPP
/c /IC:\USERS\PIMWU\DOWNLOADS\OPENCV\BUILD\INCLUDE /I"C:\PROGRAM FILES\NVIDIA GPU COMPUTING TOOLKIT\CUDA\V9.1\INCLUDE" /I"C:\USERS\PIMWU\SOURCE\REPOS\FFTW-3.3.5-DLL64" /Zi /nologo /W3 /WX- /diagnostics:classic /sdl /O2 /Oi /GL /D NDEBUG /D _CONSOLE /D _UNICODE /D UNICODE /Gm- /EHsc /MD /GS /Gy /fp:precise /Zc:wchar_t /Zc:forScope /Zc:inline /Yu"stdafx.h" /Fp"X64\RELEASE\CONSOLEAPPLICATION13.PCH" /Fo"X64\RELEASE\\" /Fd"X64\RELEASE\VC141.PDB" /Gd /TP C:\USERS\PIMWU\SOURCE\REPOS\GPU-BMS\CONSOLEAPPLICATION13\MAIN.CPP
