^C:\USERS\PIMWU\DOCUMENTS\GITHUB\BEAGLESITUATION\EVALUATION2\EVALUATION2\EVALUATION.CPP|C:\USERS\PIMWU\DOCUMENTS\GITHUB\BEAGLESITUATION\EVALUATION2\EVALUATION2\GROUNDTRUTH.CPP|C:\USERS\PIMWU\DOCUMENTS\GITHUB\BEAGLESITUATION\EVALUATION2\EVALUATION2\RADARSCREENDETECT.CPP
C:\USERS\PIMWU\DOCUMENTS\GITHUB\BEAGLESITUATION\EVALUATION2\EVALUATION2\X64\RELEASE\VC141.PDB
C:\USERS\PIMWU\DOCUMENTS\GITHUB\BEAGLESITUATION\EVALUATION2\EVALUATION2\X64\RELEASE\RADARSCREENDETECT.OBJ
C:\USERS\PIMWU\DOCUMENTS\GITHUB\BEAGLESITUATION\EVALUATION2\EVALUATION2\X64\RELEASE\GROUNDTRUTH.OBJ
C:\USERS\PIMWU\DOCUMENTS\GITHUB\BEAGLESITUATION\EVALUATION2\EVALUATION2\X64\RELEASE\EVALUATION.OBJ
^C:\USERS\PIMWU\DOCUMENTS\GITHUB\BEAGLESITUATION\EVALUATION2\EVALUATION2\BMS.CPP|C:\USERS\PIMWU\DOCUMENTS\GITHUB\BEAGLESITUATION\EVALUATION2\EVALUATION2\SALIENCYDETECT.CPP
C:\USERS\PIMWU\DOCUMENTS\GITHUB\BEAGLESITUATION\EVALUATION2\EVALUATION2\X64\RELEASE\VC141.PDB
C:\USERS\PIMWU\DOCUMENTS\GITHUB\BEAGLESITUATION\EVALUATION2\EVALUATION2\X64\RELEASE\SALIENCYDETECT.OBJ
C:\USERS\PIMWU\DOCUMENTS\GITHUB\BEAGLESITUATION\EVALUATION2\EVALUATION2\X64\RELEASE\BMS.OBJ
^C:\USERS\PIMWU\DOCUMENTS\GITHUB\BEAGLESITUATION\EVALUATION2\EVALUATION2\STDAFX.CPP
C:\USERS\PIMWU\DOCUMENTS\GITHUB\BEAGLESITUATION\EVALUATION2\EVALUATION2\X64\RELEASE\EVALUATION.PCH
C:\USERS\PIMWU\DOCUMENTS\GITHUB\BEAGLESITUATION\EVALUATION2\EVALUATION2\X64\RELEASE\VC141.PDB
C:\USERS\PIMWU\DOCUMENTS\GITHUB\BEAGLESITUATION\EVALUATION2\EVALUATION2\X64\RELEASE\STDAFX.OBJ
^C:\USERS\PIMWU\DOCUMENTS\GITHUB\BEAGLESITUATION\EVALUATION2\EVALUATION2\BMS.CPP|C:\USERS\PIMWU\DOCUMENTS\GITHUB\BEAGLESITUATION\EVALUATION2\EVALUATION2\EVALUATION.CPP|C:\USERS\PIMWU\DOCUMENTS\GITHUB\BEAGLESITUATION\EVALUATION2\EVALUATION2\GROUNDTRUTH.CPP|C:\USERS\PIMWU\DOCUMENTS\GITHUB\BEAGLESITUATION\EVALUATION2\EVALUATION2\LBP.CPP|C:\USERS\PIMWU\DOCUMENTS\GITHUB\BEAGLESITUATION\EVALUATION2\EVALUATION2\RADARSCREENDETECT.CPP|C:\USERS\PIMWU\DOCUMENTS\GITHUB\BEAGLESITUATION\EVALUATION2\EVALUATION2\SALIENCYDETECT.CPP|C:\USERS\PIMWU\DOCUMENTS\GITHUB\BEAGLESITUATION\EVALUATION2\EVALUATION2\TRIM.CPP
C:\USERS\PIMWU\DOCUMENTS\GITHUB\BEAGLESITUATION\EVALUATION2\EVALUATION2\X64\RELEASE\VC141.PDB
C:\USERS\PIMWU\DOCUMENTS\GITHUB\BEAGLESITUATION\EVALUATION2\EVALUATION2\X64\RELEASE\TRIM.OBJ
C:\USERS\PIMWU\DOCUMENTS\GITHUB\BEAGLESITUATION\EVALUATION2\EVALUATION2\X64\RELEASE\SALIENCYDETECT.OBJ
C:\USERS\PIMWU\DOCUMENTS\GITHUB\BEAGLESITUATION\EVALUATION2\EVALUATION2\X64\RELEASE\RADARSCREENDETECT.OBJ
C:\USERS\PIMWU\DOCUMENTS\GITHUB\BEAGLESITUATION\EVALUATION2\EVALUATION2\X64\RELEASE\LBP.OBJ
C:\USERS\PIMWU\DOCUMENTS\GITHUB\BEAGLESITUATION\EVALUATION2\EVALUATION2\X64\RELEASE\GROUNDTRUTH.OBJ
C:\USERS\PIMWU\DOCUMENTS\GITHUB\BEAGLESITUATION\EVALUATION2\EVALUATION2\X64\RELEASE\EVALUATION.OBJ
C:\USERS\PIMWU\DOCUMENTS\GITHUB\BEAGLESITUATION\EVALUATION2\EVALUATION2\X64\RELEASE\BMS.OBJ
^C:\USERS\PIMWU\DOCUMENTS\GITHUB\BEAGLESITUATION\EVALUATION2\EVALUATION2\BMS.CPP
C:\USERS\PIMWU\DOCUMENTS\GITHUB\BEAGLESITUATION\EVALUATION2\EVALUATION2\X64\RELEASE\VC141.PDB
^C:\USERS\PIMWU\DOCUMENTS\GITHUB\BEAGLESITUATION\EVALUATION2\EVALUATION2\LBP.CPP
C:\USERS\PIMWU\DOCUMENTS\GITHUB\BEAGLESITUATION\EVALUATION2\EVALUATION2\X64\RELEASE\VC141.PDB
^C:\USERS\PIMWU\DOCUMENTS\GITHUB\BEAGLESITUATION\EVALUATION2\EVALUATION2\RADARSCREENDETECT.CPP
C:\USERS\PIMWU\DOCUMENTS\GITHUB\BEAGLESITUATION\EVALUATION2\EVALUATION2\X64\RELEASE\VC141.PDB
^C:\USERS\PIMWU\DOCUMENTS\GITHUB\BEAGLESITUATION\EVALUATION2\EVALUATION2\TRIM.CPP
C:\USERS\PIMWU\DOCUMENTS\GITHUB\BEAGLESITUATION\EVALUATION2\EVALUATION2\X64\RELEASE\VC141.PDB
^C:\USERS\PIMWU\DOCUMENTS\GITHUB\BEAGLESITUATION\EVALUATION2\EVALUATION2\EVALUATION.CPP|C:\USERS\PIMWU\DOCUMENTS\GITHUB\BEAGLESITUATION\EVALUATION2\EVALUATION2\SALIENCYDETECT.CPP
C:\USERS\PIMWU\DOCUMENTS\GITHUB\BEAGLESITUATION\EVALUATION2\EVALUATION2\X64\RELEASE\VC141.PDB
C:\USERS\PIMWU\DOCUMENTS\GITHUB\BEAGLESITUATION\EVALUATION2\EVALUATION2\X64\RELEASE\SALIENCYDETECT.OBJ
C:\USERS\PIMWU\DOCUMENTS\GITHUB\BEAGLESITUATION\EVALUATION2\EVALUATION2\X64\RELEASE\EVALUATION.OBJ
^C:\USERS\PIMWU\DOCUMENTS\GITHUB\BEAGLESITUATION\EVALUATION2\EVALUATION2\GROUNDTRUTH.CPP|C:\USERS\PIMWU\DOCUMENTS\GITHUB\BEAGLESITUATION\EVALUATION2\EVALUATION2\SALIENCYDETECT.CPP
C:\USERS\PIMWU\DOCUMENTS\GITHUB\BEAGLESITUATION\EVALUATION2\EVALUATION2\X64\RELEASE\VC141.PDB
C:\USERS\PIMWU\DOCUMENTS\GITHUB\BEAGLESITUATION\EVALUATION2\EVALUATION2\X64\RELEASE\SALIENCYDETECT.OBJ
C:\USERS\PIMWU\DOCUMENTS\GITHUB\BEAGLESITUATION\EVALUATION2\EVALUATION2\X64\RELEASE\GROUNDTRUTH.OBJ
^C:\USERS\PIMWU\DOCUMENTS\GITHUB\BEAGLESITUATION\EVALUATION2\EVALUATION2\EVALUATION.CPP|C:\USERS\PIMWU\DOCUMENTS\GITHUB\BEAGLESITUATION\EVALUATION2\EVALUATION2\GROUNDTRUTH.CPP
C:\USERS\PIMWU\DOCUMENTS\GITHUB\BEAGLESITUATION\EVALUATION2\EVALUATION2\X64\RELEASE\VC141.PDB
C:\USERS\PIMWU\DOCUMENTS\GITHUB\BEAGLESITUATION\EVALUATION2\EVALUATION2\X64\RELEASE\GROUNDTRUTH.OBJ
C:\USERS\PIMWU\DOCUMENTS\GITHUB\BEAGLESITUATION\EVALUATION2\EVALUATION2\X64\RELEASE\EVALUATION.OBJ
^C:\USERS\PIMWU\DOCUMENTS\GITHUB\BEAGLESITUATION\EVALUATION2\EVALUATION2\EVALUATION.CPP|C:\USERS\PIMWU\DOCUMENTS\GITHUB\BEAGLESITUATION\EVALUATION2\EVALUATION2\GROUNDTRUTH.CPP|C:\USERS\PIMWU\DOCUMENTS\GITHUB\BEAGLESITUATION\EVALUATION2\EVALUATION2\SALIENCYDETECT.CPP
C:\USERS\PIMWU\DOCUMENTS\GITHUB\BEAGLESITUATION\EVALUATION2\EVALUATION2\X64\RELEASE\VC141.PDB
C:\USERS\PIMWU\DOCUMENTS\GITHUB\BEAGLESITUATION\EVALUATION2\EVALUATION2\X64\RELEASE\SALIENCYDETECT.OBJ
C:\USERS\PIMWU\DOCUMENTS\GITHUB\BEAGLESITUATION\EVALUATION2\EVALUATION2\X64\RELEASE\GROUNDTRUTH.OBJ
C:\USERS\PIMWU\DOCUMENTS\GITHUB\BEAGLESITUATION\EVALUATION2\EVALUATION2\X64\RELEASE\EVALUATION.OBJ
^C:\USERS\PIMWU\DOCUMENTS\GITHUB\BEAGLESITUATION\EVALUATION2\EVALUATION2\EVALUATION.CPP
C:\USERS\PIMWU\DOCUMENTS\GITHUB\BEAGLESITUATION\EVALUATION2\EVALUATION2\X64\RELEASE\VC141.PDB
^C:\USERS\PIMWU\DOCUMENTS\GITHUB\BEAGLESITUATION\EVALUATION2\EVALUATION2\GROUNDTRUTH.CPP
C:\USERS\PIMWU\DOCUMENTS\GITHUB\BEAGLESITUATION\EVALUATION2\EVALUATION2\X64\RELEASE\VC141.PDB
^C:\USERS\PIMWU\DOCUMENTS\GITHUB\BEAGLESITUATION\EVALUATION2\EVALUATION2\SALIENCYDETECT.CPP
C:\USERS\PIMWU\DOCUMENTS\GITHUB\BEAGLESITUATION\EVALUATION2\EVALUATION2\X64\RELEASE\VC141.PDB
C:\USERS\PIMWU\DOCUMENTS\GITHUB\BEAGLESITUATION\EVALUATION2\EVALUATION2\X64\RELEASE\SALIENCYDETECT.OBJ
