^C:\USERS\PIMWU\SOURCE\REPOS\CPU-BMS\CONSOLEAPPLICATION13\X64\DEBUG\BMS.OBJ|C:\USERS\PIMWU\SOURCE\REPOS\CPU-BMS\CONSOLEAPPLICATION13\X64\DEBUG\HISTOGRAM.OBJ|C:\USERS\PIMWU\SOURCE\REPOS\CPU-BMS\CONSOLEAPPLICATION13\X64\DEBUG\LBP.OBJ|C:\USERS\PIMWU\SOURCE\REPOS\CPU-BMS\CONSOLEAPPLICATION13\X64\DEBUG\MAIN.OBJ|C:\USERS\PIMWU\SOURCE\REPOS\CPU-BMS\CONSOLEAPPLICATION13\X64\DEBUG\RADARSCREENDETECT.OBJ|C:\USERS\PIMWU\SOURCE\REPOS\CPU-BMS\CONSOLEAPPLICATION13\X64\DEBUG\STDAFX.OBJ|C:\USERS\PIMWU\SOURCE\REPOS\CPU-BMS\CONSOLEAPPLICATION13\X64\DEBUG\TRIM.OBJ
C:\WINDOWS\GLOBALIZATION\SORTING\SORTDEFAULT.NLS
C:\USERS\PIMWU\DOCUMENTS\OPENCV-3.4.0\BUILD\INSTALL\X64\VC15\LIB\OPENCV_WORLD340D.LIB
C:\USERS\PIMWU\DOWNLOADS\TBB41_20130314OSS_WIN\TBB41_20130314OSS\LIB\INTEL64\VC11_UI\TBB.LIB
C:\USERS\PIMWU\DOWNLOADS\TBB41_20130314OSS_WIN\TBB41_20130314OSS\LIB\INTEL64\VC11_UI\TBB_DEBUG.LIB
C:\USERS\PIMWU\DOWNLOADS\CUDNN-9.1-WINDOWS10-X64-V7.1\CUDA\LIB\X64\CUDNN.LIB
C:\USERS\PIMWU\SOURCE\REPOS\FFTW-3.3.5-DLL64\LIBFFTW3-3.LIB
C:\USERS\PIMWU\SOURCE\REPOS\FFTW-3.3.5-DLL64\LIBFFTW3F-3.LIB
C:\USERS\PIMWU\SOURCE\REPOS\FFTW-3.3.5-DLL64\LIBFFTW3L-3.LIB
C:\PROGRAM FILES (X86)\WINDOWS KITS\10\LIB\10.0.17134.0\UM\X64\KERNEL32.LIB
C:\PROGRAM FILES (X86)\WINDOWS KITS\10\LIB\10.0.17134.0\UM\X64\USER32.LIB
C:\PROGRAM FILES (X86)\WINDOWS KITS\10\LIB\10.0.17134.0\UM\X64\GDI32.LIB
C:\PROGRAM FILES (X86)\WINDOWS KITS\10\LIB\10.0.17134.0\UM\X64\WINSPOOL.LIB
C:\PROGRAM FILES (X86)\WINDOWS KITS\10\LIB\10.0.17134.0\UM\X64\COMDLG32.LIB
C:\PROGRAM FILES (X86)\WINDOWS KITS\10\LIB\10.0.17134.0\UM\X64\ADVAPI32.LIB
C:\PROGRAM FILES (X86)\WINDOWS KITS\10\LIB\10.0.17134.0\UM\X64\SHELL32.LIB
C:\PROGRAM FILES (X86)\WINDOWS KITS\10\LIB\10.0.17134.0\UM\X64\OLE32.LIB
C:\PROGRAM FILES (X86)\WINDOWS KITS\10\LIB\10.0.17134.0\UM\X64\OLEAUT32.LIB
C:\PROGRAM FILES (X86)\WINDOWS KITS\10\LIB\10.0.17134.0\UM\X64\UUID.LIB
C:\PROGRAM FILES (X86)\WINDOWS KITS\10\LIB\10.0.17134.0\UM\X64\ODBC32.LIB
C:\PROGRAM FILES (X86)\WINDOWS KITS\10\LIB\10.0.17134.0\UM\X64\ODBCCP32.LIB
C:\USERS\PIMWU\SOURCE\REPOS\CPU-BMS\CONSOLEAPPLICATION13\X64\DEBUG\BMS.OBJ
C:\USERS\PIMWU\SOURCE\REPOS\CPU-BMS\CONSOLEAPPLICATION13\X64\DEBUG\HISTOGRAM.OBJ
C:\USERS\PIMWU\SOURCE\REPOS\CPU-BMS\CONSOLEAPPLICATION13\X64\DEBUG\LBP.OBJ
C:\USERS\PIMWU\SOURCE\REPOS\CPU-BMS\CONSOLEAPPLICATION13\X64\DEBUG\MAIN.OBJ
C:\USERS\PIMWU\SOURCE\REPOS\CPU-BMS\CONSOLEAPPLICATION13\X64\DEBUG\RADARSCREENDETECT.OBJ
C:\USERS\PIMWU\SOURCE\REPOS\CPU-BMS\CONSOLEAPPLICATION13\X64\DEBUG\STDAFX.OBJ
C:\USERS\PIMWU\SOURCE\REPOS\CPU-BMS\CONSOLEAPPLICATION13\X64\DEBUG\TRIM.OBJ
C:\WINDOWS\SYSTEM32\TZRES.DLL
C:\PROGRAM FILES (X86)\MICROSOFT VISUAL STUDIO\2017\COMMUNITY\VC\TOOLS\MSVC\14.11.25503\LIB\X64\MSVCPRTD.LIB
C:\PROGRAM FILES (X86)\MICROSOFT VISUAL STUDIO\2017\COMMUNITY\VC\TOOLS\MSVC\14.11.25503\LIB\X64\MSVCRTD.LIB
C:\PROGRAM FILES (X86)\MICROSOFT VISUAL STUDIO\2017\COMMUNITY\VC\TOOLS\MSVC\14.11.25503\LIB\X64\OLDNAMES.LIB
C:\PROGRAM FILES (X86)\MICROSOFT VISUAL STUDIO\2017\COMMUNITY\VC\TOOLS\MSVC\14.11.25503\LIB\X64\VCOMPD.LIB
C:\PROGRAM FILES (X86)\MICROSOFT VISUAL STUDIO\2017\COMMUNITY\VC\TOOLS\MSVC\14.11.25503\LIB\X64\VCRUNTIMED.LIB
C:\PROGRAM FILES (X86)\WINDOWS KITS\10\LIB\10.0.17134.0\UCRT\X64\UCRTD.LIB
^C:\USERS\PIMWU\DOCUMENTS\GITHUB\BEAGLESITUATION\CPU-BMS\CONSOLEAPPLICATION13\X64\DEBUG\BMS.OBJ|C:\USERS\PIMWU\DOCUMENTS\GITHUB\BEAGLESITUATION\CPU-BMS\CONSOLEAPPLICATION13\X64\DEBUG\HISTOGRAM.OBJ|C:\USERS\PIMWU\DOCUMENTS\GITHUB\BEAGLESITUATION\CPU-BMS\CONSOLEAPPLICATION13\X64\DEBUG\LBP.OBJ|C:\USERS\PIMWU\DOCUMENTS\GITHUB\BEAGLESITUATION\CPU-BMS\CONSOLEAPPLICATION13\X64\DEBUG\MAIN.OBJ|C:\USERS\PIMWU\DOCUMENTS\GITHUB\BEAGLESITUATION\CPU-BMS\CONSOLEAPPLICATION13\X64\DEBUG\RADARSCREENDETECT.OBJ|C:\USERS\PIMWU\DOCUMENTS\GITHUB\BEAGLESITUATION\CPU-BMS\CONSOLEAPPLICATION13\X64\DEBUG\STDAFX.OBJ|C:\USERS\PIMWU\DOCUMENTS\GITHUB\BEAGLESITUATION\CPU-BMS\CONSOLEAPPLICATION13\X64\DEBUG\TRIM.OBJ
C:\WINDOWS\GLOBALIZATION\SORTING\SORTDEFAULT.NLS
C:\USERS\PIMWU\DOCUMENTS\OPENCV-3.4.0\BUILD\INSTALL\X64\VC15\LIB\OPENCV_WORLD340D.LIB
C:\USERS\PIMWU\DOWNLOADS\TBB41_20130314OSS_WIN\TBB41_20130314OSS\LIB\INTEL64\VC11_UI\TBB.LIB
C:\USERS\PIMWU\DOWNLOADS\TBB41_20130314OSS_WIN\TBB41_20130314OSS\LIB\INTEL64\VC11_UI\TBB_DEBUG.LIB
C:\USERS\PIMWU\DOWNLOADS\CUDNN-9.1-WINDOWS10-X64-V7.1\CUDA\LIB\X64\CUDNN.LIB
C:\USERS\PIMWU\SOURCE\REPOS\FFTW-3.3.5-DLL64\LIBFFTW3-3.LIB
C:\USERS\PIMWU\SOURCE\REPOS\FFTW-3.3.5-DLL64\LIBFFTW3F-3.LIB
C:\USERS\PIMWU\SOURCE\REPOS\FFTW-3.3.5-DLL64\LIBFFTW3L-3.LIB
C:\PROGRAM FILES (X86)\WINDOWS KITS\10\LIB\10.0.17134.0\UM\X64\KERNEL32.LIB
C:\PROGRAM FILES (X86)\WINDOWS KITS\10\LIB\10.0.17134.0\UM\X64\USER32.LIB
C:\PROGRAM FILES (X86)\WINDOWS KITS\10\LIB\10.0.17134.0\UM\X64\GDI32.LIB
C:\PROGRAM FILES (X86)\WINDOWS KITS\10\LIB\10.0.17134.0\UM\X64\WINSPOOL.LIB
C:\PROGRAM FILES (X86)\WINDOWS KITS\10\LIB\10.0.17134.0\UM\X64\COMDLG32.LIB
C:\PROGRAM FILES (X86)\WINDOWS KITS\10\LIB\10.0.17134.0\UM\X64\ADVAPI32.LIB
C:\PROGRAM FILES (X86)\WINDOWS KITS\10\LIB\10.0.17134.0\UM\X64\SHELL32.LIB
C:\PROGRAM FILES (X86)\WINDOWS KITS\10\LIB\10.0.17134.0\UM\X64\OLE32.LIB
C:\PROGRAM FILES (X86)\WINDOWS KITS\10\LIB\10.0.17134.0\UM\X64\OLEAUT32.LIB
C:\PROGRAM FILES (X86)\WINDOWS KITS\10\LIB\10.0.17134.0\UM\X64\UUID.LIB
C:\PROGRAM FILES (X86)\WINDOWS KITS\10\LIB\10.0.17134.0\UM\X64\ODBC32.LIB
C:\PROGRAM FILES (X86)\WINDOWS KITS\10\LIB\10.0.17134.0\UM\X64\ODBCCP32.LIB
C:\USERS\PIMWU\DOCUMENTS\GITHUB\BEAGLESITUATION\CPU-BMS\CONSOLEAPPLICATION13\X64\DEBUG\BMS.OBJ
C:\USERS\PIMWU\DOCUMENTS\GITHUB\BEAGLESITUATION\CPU-BMS\CONSOLEAPPLICATION13\X64\DEBUG\HISTOGRAM.OBJ
C:\USERS\PIMWU\DOCUMENTS\GITHUB\BEAGLESITUATION\CPU-BMS\CONSOLEAPPLICATION13\X64\DEBUG\LBP.OBJ
C:\USERS\PIMWU\DOCUMENTS\GITHUB\BEAGLESITUATION\CPU-BMS\CONSOLEAPPLICATION13\X64\DEBUG\MAIN.OBJ
C:\USERS\PIMWU\DOCUMENTS\GITHUB\BEAGLESITUATION\CPU-BMS\CONSOLEAPPLICATION13\X64\DEBUG\RADARSCREENDETECT.OBJ
C:\USERS\PIMWU\DOCUMENTS\GITHUB\BEAGLESITUATION\CPU-BMS\CONSOLEAPPLICATION13\X64\DEBUG\STDAFX.OBJ
C:\USERS\PIMWU\DOCUMENTS\GITHUB\BEAGLESITUATION\CPU-BMS\CONSOLEAPPLICATION13\X64\DEBUG\TRIM.OBJ
C:\WINDOWS\SYSTEM32\TZRES.DLL
C:\PROGRAM FILES (X86)\MICROSOFT VISUAL STUDIO\2017\COMMUNITY\VC\TOOLS\MSVC\14.11.25503\LIB\X64\MSVCPRTD.LIB
C:\PROGRAM FILES (X86)\MICROSOFT VISUAL STUDIO\2017\COMMUNITY\VC\TOOLS\MSVC\14.11.25503\LIB\X64\MSVCRTD.LIB
C:\PROGRAM FILES (X86)\MICROSOFT VISUAL STUDIO\2017\COMMUNITY\VC\TOOLS\MSVC\14.11.25503\LIB\X64\OLDNAMES.LIB
C:\PROGRAM FILES (X86)\MICROSOFT VISUAL STUDIO\2017\COMMUNITY\VC\TOOLS\MSVC\14.11.25503\LIB\X64\VCOMPD.LIB
C:\PROGRAM FILES (X86)\MICROSOFT VISUAL STUDIO\2017\COMMUNITY\VC\TOOLS\MSVC\14.11.25503\LIB\X64\VCRUNTIMED.LIB
C:\PROGRAM FILES (X86)\WINDOWS KITS\10\LIB\10.0.17134.0\UCRT\X64\UCRTD.LIB
